-- Merging decision tree log ---
manifest
ADDED from /Users/technoarray/Downloads/reactnative/dev_projects/Backup Zip/ethera_new/android/app/src/main/AndroidManifest.xml:1:1-46:12
INJECTED from /Users/technoarray/Downloads/reactnative/dev_projects/Backup Zip/ethera_new/android/app/src/main/AndroidManifest.xml:1:1-46:12
INJECTED from /Users/technoarray/Downloads/reactnative/dev_projects/Backup Zip/ethera_new/android/app/src/main/AndroidManifest.xml:1:1-46:12
INJECTED from /Users/technoarray/Downloads/reactnative/dev_projects/Backup Zip/ethera_new/android/app/src/main/AndroidManifest.xml:1:1-46:12
MERGED from [:react-native-linear-gradient] /Users/technoarray/Downloads/reactnative/dev_projects/Backup Zip/ethera_new/node_modules/react-native-linear-gradient/android/build/intermediates/library_manifest/release/AndroidManifest.xml:2:1-11:12
MERGED from [:react-native-fbsdk] /Users/technoarray/Downloads/reactnative/dev_projects/Backup Zip/ethera_new/node_modules/react-native-fbsdk/android/build/intermediates/library_manifest/release/AndroidManifest.xml:21:1-30:12
MERGED from [:react-native-smart-splash-screen] /Users/technoarray/Downloads/reactnative/dev_projects/Backup Zip/ethera_new/node_modules/react-native-smart-splash-screen/android/build/intermediates/library_manifest/release/AndroidManifest.xml:2:1-11:12
MERGED from [:react-native-google-signin] /Users/technoarray/Downloads/reactnative/dev_projects/Backup Zip/ethera_new/node_modules/react-native-google-signin/android/build/intermediates/library_manifest/release/AndroidManifest.xml:2:1-11:12
MERGED from [:react-native-firebase] /Users/technoarray/Downloads/reactnative/dev_projects/Backup Zip/ethera_new/node_modules/react-native-firebase/android/build/intermediates/library_manifest/release/AndroidManifest.xml:2:1-15:12
MERGED from [:react-native-picker] /Users/technoarray/Downloads/reactnative/dev_projects/Backup Zip/ethera_new/node_modules/react-native-picker/android/build/intermediates/library_manifest/release/AndroidManifest.xml:2:1-13:12
MERGED from [:react-native-orientation] /Users/technoarray/Downloads/reactnative/dev_projects/Backup Zip/ethera_new/node_modules/react-native-orientation/android/build/intermediates/library_manifest/release/AndroidManifest.xml:2:1-11:12
MERGED from [:react-native-wheel-picker] /Users/technoarray/Downloads/reactnative/dev_projects/Backup Zip/ethera_new/node_modules/react-native-wheel-picker/android/build/intermediates/library_manifest/release/AndroidManifest.xml:2:1-11:12
MERGED from [:react-native-vector-icons] /Users/technoarray/Downloads/reactnative/dev_projects/Backup Zip/ethera_new/node_modules/react-native-vector-icons/android/build/intermediates/library_manifest/release/AndroidManifest.xml:2:1-11:12
MERGED from [com.facebook.react:react-native:0.59.9] /Users/technoarray/.gradle/caches/transforms-2/files-2.1/33d150911909f3cdfed07b7fba0992f7/AndroidManifest.xml:2:1-13:12
MERGED from [com.facebook.android:facebook-android-sdk:5.0.3] /Users/technoarray/.gradle/caches/transforms-2/files-2.1/6ae385ef8093b67cef2027a87c602001/AndroidManifest.xml:21:1-31:12
MERGED from [com.facebook.android:facebook-login:5.0.3] /Users/technoarray/.gradle/caches/transforms-2/files-2.1/c1381fb8f40a652660cb0158eac000b2/AndroidManifest.xml:21:1-31:12
MERGED from [com.facebook.android:facebook-share:5.0.3] /Users/technoarray/.gradle/caches/transforms-2/files-2.1/fe65714cb1c5e0b30fa14a4147fe6266/AndroidManifest.xml:21:1-31:12
MERGED from [com.facebook.android:facebook-common:5.0.3] /Users/technoarray/.gradle/caches/transforms-2/files-2.1/79a095e037ea733add2055816fbe736d/AndroidManifest.xml:21:1-37:12
MERGED from [androidx.appcompat:appcompat:1.0.2] /Users/technoarray/.gradle/caches/transforms-2/files-2.1/7d3d05d49151e758d7ff66b3908a638c/AndroidManifest.xml:17:1-22:12
MERGED from [:react-native-sound] /Users/technoarray/Downloads/reactnative/dev_projects/Backup Zip/ethera_new/node_modules/react-native-sound/android/build/intermediates/library_manifest/release/AndroidManifest.xml:2:1-12:12
MERGED from [androidx.legacy:legacy-support-v4:1.0.0] /Users/technoarray/.gradle/caches/transforms-2/files-2.1/0a9cf984cc5061bb138e023c5ff796c6/AndroidManifest.xml:17:1-22:12
MERGED from [com.google.android.gms:play-services-auth:15.0.1] /Users/technoarray/.gradle/caches/transforms-2/files-2.1/f9f3cf3b660c4b383f70107680d1b0c0/AndroidManifest.xml:17:1-39:12
MERGED from [com.google.android.gms:play-services-auth-api-phone:15.0.1] /Users/technoarray/.gradle/caches/transforms-2/files-2.1/cd9ecebcaaa63fe70312028982057c59/AndroidManifest.xml:2:1-7:12
MERGED from [com.google.android.gms:play-services-auth-base:15.0.1] /Users/technoarray/.gradle/caches/transforms-2/files-2.1/97de68e7f841c720723cd141d3a91df5/AndroidManifest.xml:2:1-7:12
MERGED from [com.google.firebase:firebase-messaging:18.0.0] /Users/technoarray/.gradle/caches/transforms-2/files-2.1/06ec37d15c4b2590afc72d47c9a7a199/AndroidManifest.xml:17:1-37:12
MERGED from [com.google.firebase:firebase-core:16.0.9] /Users/technoarray/.gradle/caches/transforms-2/files-2.1/8a92e9e6b438ba3e640ab40705b788c8/AndroidManifest.xml:2:1-9:12
MERGED from [com.google.firebase:firebase-analytics:16.5.0] /Users/technoarray/.gradle/caches/transforms-2/files-2.1/309b9a6cc2b439e0b00c5677d0c63b16/AndroidManifest.xml:2:1-9:12
MERGED from [com.google.android.gms:play-services-measurement-api:16.5.0] /Users/technoarray/.gradle/caches/transforms-2/files-2.1/8c8082a299d3a265bc3be37072b2c92e/AndroidManifest.xml:17:1-36:12
MERGED from [com.google.firebase:firebase-iid:18.0.0] /Users/technoarray/.gradle/caches/transforms-2/files-2.1/a289c5d6a7a81a5e7e1295fa12184933/AndroidManifest.xml:17:1-47:12
MERGED from [com.google.firebase:firebase-iid-interop:16.0.1] /Users/technoarray/.gradle/caches/transforms-2/files-2.1/b2dd9ff1529d756e52a7dbbfc9391e49/AndroidManifest.xml:2:1-10:12
MERGED from [com.google.android.gms:play-services-base:17.0.0] /Users/technoarray/.gradle/caches/transforms-2/files-2.1/6baa836efd8ab2d02a51aaa1f4438ae3/AndroidManifest.xml:17:1-29:12
MERGED from [androidx.multidex:multidex:2.0.0] /Users/technoarray/.gradle/caches/transforms-2/files-2.1/b28afd9852af8f2d4534ed71268015f0/AndroidManifest.xml:17:1-22:12
MERGED from [com.google.firebase:firebase-common:17.0.0] /Users/technoarray/.gradle/caches/transforms-2/files-2.1/c8c4ee766e6a60a1d8bf1ae304e5202b/AndroidManifest.xml:2:1-19:12
MERGED from [com.google.android.gms:play-services-tasks:17.0.0] /Users/technoarray/.gradle/caches/transforms-2/files-2.1/10f6d992c711aa85366897e0ceb6d9de/AndroidManifest.xml:2:1-9:12
MERGED from [com.google.firebase:firebase-measurement-connector:17.0.1] /Users/technoarray/.gradle/caches/transforms-2/files-2.1/dd0ac1fa22f3ea4e3f6eaeb4a7eb2810/AndroidManifest.xml:17:1-25:12
MERGED from [com.google.android.gms:play-services-measurement:16.5.0] /Users/technoarray/.gradle/caches/transforms-2/files-2.1/c56b7515e00c8206976b8c979c0dc8bc/AndroidManifest.xml:17:1-55:12
MERGED from [com.google.android.gms:play-services-measurement-sdk:16.5.0] /Users/technoarray/.gradle/caches/transforms-2/files-2.1/7fa955c2218c8a34b6f2f5be83cd89a5/AndroidManifest.xml:17:1-25:12
MERGED from [com.google.android.gms:play-services-measurement-impl:16.5.0] /Users/technoarray/.gradle/caches/transforms-2/files-2.1/dde9233023bfd4a900e6ef666e546608/AndroidManifest.xml:17:1-40:12
MERGED from [com.google.android.gms:play-services-stats:16.0.1] /Users/technoarray/.gradle/caches/transforms-2/files-2.1/d24758a27e83e7afac0ae8cc760d6033/AndroidManifest.xml:2:1-9:12
MERGED from [com.google.android.gms:play-services-measurement-sdk-api:16.5.0] /Users/technoarray/.gradle/caches/transforms-2/files-2.1/f0f93d64fa6e27222cc8bf181c65ffe9/AndroidManifest.xml:17:1-40:12
MERGED from [com.google.android.gms:play-services-measurement-base:16.5.0] /Users/technoarray/.gradle/caches/transforms-2/files-2.1/fb07b62dc999833d13484c6b9a175fd2/AndroidManifest.xml:2:1-9:12
MERGED from [com.google.android.gms:play-services-ads-identifier:16.0.0] /Users/technoarray/.gradle/caches/transforms-2/files-2.1/96c6403c9a1fa11fd35b4c97db086c6c/AndroidManifest.xml:17:1-24:12
MERGED from [com.google.android.gms:play-services-basement:17.0.0] /Users/technoarray/.gradle/caches/transforms-2/files-2.1/36ed4465b6c90911a489c2ccf3e961b4/AndroidManifest.xml:17:1-28:12
MERGED from [androidx.fragment:fragment:1.0.0] /Users/technoarray/.gradle/caches/transforms-2/files-2.1/c11b50dc282409014fa9ad0a9ff63a94/AndroidManifest.xml:17:1-22:12
MERGED from [androidx.vectordrawable:vectordrawable-animated:1.0.0] /Users/technoarray/.gradle/caches/transforms-2/files-2.1/4cc3961a5ff19e3cd6b7d5559a26a7bb/AndroidManifest.xml:17:1-22:12
MERGED from [androidx.browser:browser:1.0.0] /Users/technoarray/.gradle/caches/transforms-2/files-2.1/364c726cebed81cb21c5a0fc85a3ed55/AndroidManifest.xml:17:1-22:12
MERGED from [androidx.legacy:legacy-support-core-ui:1.0.0] /Users/technoarray/.gradle/caches/transforms-2/files-2.1/1f8edd14da1508059fea97b1f73ca5d5/AndroidManifest.xml:17:1-22:12
MERGED from [com.facebook.android:facebook-places:5.0.3] /Users/technoarray/.gradle/caches/transforms-2/files-2.1/c88ab467f430c5bf0d5b921ac99f71fa/AndroidManifest.xml:21:1-31:12
MERGED from [com.facebook.android:facebook-applinks:5.0.3] /Users/technoarray/.gradle/caches/transforms-2/files-2.1/6208730f2536726b9c38d5d64ec99f02/AndroidManifest.xml:21:1-31:12
MERGED from [com.facebook.android:facebook-messenger:5.0.3] /Users/technoarray/.gradle/caches/transforms-2/files-2.1/b40f717f885530e526e7ae642c11c4f7/AndroidManifest.xml:21:1-31:12
MERGED from [com.facebook.android:facebook-core:5.0.3] /Users/technoarray/.gradle/caches/transforms-2/files-2.1/f891ebaa0645e1dfb0de68d17a9ebb5a/AndroidManifest.xml:21:1-61:12
MERGED from [androidx.legacy:legacy-support-core-utils:1.0.0] /Users/technoarray/.gradle/caches/transforms-2/files-2.1/23244d484643676109d8be8a2cf4e257/AndroidManifest.xml:17:1-22:12
MERGED from [androidx.vectordrawable:vectordrawable:1.0.1] /Users/technoarray/.gradle/caches/transforms-2/files-2.1/0a3cdca0b39c974f38cf68b9767eb383/AndroidManifest.xml:17:1-22:12
MERGED from [androidx.media:media:1.0.0] /Users/technoarray/.gradle/caches/transforms-2/files-2.1/bccd592d2aca07d44e166d6f211377bd/AndroidManifest.xml:17:1-22:12
MERGED from [androidx.loader:loader:1.0.0] /Users/technoarray/.gradle/caches/transforms-2/files-2.1/4de7432c2e34f10730cd3821adaa14e4/AndroidManifest.xml:17:1-22:12
MERGED from [androidx.viewpager:viewpager:1.0.0] /Users/technoarray/.gradle/caches/transforms-2/files-2.1/1cd189e7f2968107ac8eb80745a903f9/AndroidManifest.xml:17:1-22:12
MERGED from [androidx.coordinatorlayout:coordinatorlayout:1.0.0] /Users/technoarray/.gradle/caches/transforms-2/files-2.1/fe46243a1a4c18e058bf6a6e6600ee07/AndroidManifest.xml:17:1-22:12
MERGED from [androidx.drawerlayout:drawerlayout:1.0.0] /Users/technoarray/.gradle/caches/transforms-2/files-2.1/8c6ba5128b1ec7d83bd57534d90bf378/AndroidManifest.xml:17:1-22:12
MERGED from [androidx.slidingpanelayout:slidingpanelayout:1.0.0] /Users/technoarray/.gradle/caches/transforms-2/files-2.1/dfe252f9efbd904172770d908a8d7b8a/AndroidManifest.xml:17:1-22:12
MERGED from [androidx.customview:customview:1.0.0] /Users/technoarray/.gradle/caches/transforms-2/files-2.1/8fe68fd7c9d6545ed292d7e00d32d6fc/AndroidManifest.xml:17:1-22:12
MERGED from [androidx.swiperefreshlayout:swiperefreshlayout:1.0.0] /Users/technoarray/.gradle/caches/transforms-2/files-2.1/3c36a6077d0bcc3d6e8dd1d744bb91dd/AndroidManifest.xml:17:1-22:12
MERGED from [androidx.asynclayoutinflater:asynclayoutinflater:1.0.0] /Users/technoarray/.gradle/caches/transforms-2/files-2.1/a9603bc96cd145fe9ba4e9bb9f4e4d9f/AndroidManifest.xml:17:1-22:12
MERGED from [androidx.core:core:1.0.1] /Users/technoarray/.gradle/caches/transforms-2/files-2.1/e82bcc38e5da19011d0395add25d9201/AndroidManifest.xml:17:1-24:12
MERGED from [androidx.versionedparcelable:versionedparcelable:1.0.0] /Users/technoarray/.gradle/caches/transforms-2/files-2.1/9c80c57b3f53b9259fe96ef35e8e7084/AndroidManifest.xml:17:1-25:12
MERGED from [androidx.cursoradapter:cursoradapter:1.0.0] /Users/technoarray/.gradle/caches/transforms-2/files-2.1/44eb953e48f73f3cbb4f9b214cadb7c2/AndroidManifest.xml:17:1-22:12
MERGED from [androidx.lifecycle:lifecycle-runtime:2.0.0] /Users/technoarray/.gradle/caches/transforms-2/files-2.1/74cbd6d8ded829fc216e9f54fd0a55fa/AndroidManifest.xml:17:1-22:12
MERGED from [androidx.documentfile:documentfile:1.0.0] /Users/technoarray/.gradle/caches/transforms-2/files-2.1/ce30a40b39da94d4a5cdf74a15ab344a/AndroidManifest.xml:17:1-22:12
MERGED from [androidx.localbroadcastmanager:localbroadcastmanager:1.0.0] /Users/technoarray/.gradle/caches/transforms-2/files-2.1/a83a41727b27a9958a9b81953b14d396/AndroidManifest.xml:17:1-22:12
MERGED from [androidx.print:print:1.0.0] /Users/technoarray/.gradle/caches/transforms-2/files-2.1/db126179063516b6201b1e5a211731f4/AndroidManifest.xml:17:1-22:12
MERGED from [androidx.lifecycle:lifecycle-viewmodel:2.0.0] /Users/technoarray/.gradle/caches/transforms-2/files-2.1/6635ec7b3a9c090ec954e9fe246bc9aa/AndroidManifest.xml:17:1-22:12
MERGED from [androidx.interpolator:interpolator:1.0.0] /Users/technoarray/.gradle/caches/transforms-2/files-2.1/02ac51474fb985aa919897f0507eb80d/AndroidManifest.xml:17:1-22:12
MERGED from [androidx.lifecycle:lifecycle-livedata:2.0.0] /Users/technoarray/.gradle/caches/transforms-2/files-2.1/1fd7c6ff49b60c4adaf7509ac4e283cf/AndroidManifest.xml:17:1-22:12
MERGED from [androidx.lifecycle:lifecycle-livedata-core:2.0.0] /Users/technoarray/.gradle/caches/transforms-2/files-2.1/e72aa465e3317d06a31102fe4fda521e/AndroidManifest.xml:17:1-22:12
MERGED from [androidx.arch.core:core-runtime:2.0.0] /Users/technoarray/.gradle/caches/transforms-2/files-2.1/ff06da4af9aa58b9d34f87589329ef59/AndroidManifest.xml:17:1-22:12
MERGED from [androidx.cardview:cardview:1.0.0] /Users/technoarray/.gradle/caches/transforms-2/files-2.1/625abcd181aed8587e627e3495d5b235/AndroidManifest.xml:17:1-22:12
MERGED from [cn.aigestudio.wheelpicker:WheelPicker:1.0.3] /Users/technoarray/.gradle/caches/transforms-2/files-2.1/f76693957409d0990225359b5bb218b9/AndroidManifest.xml:2:1-12:12
MERGED from [com.facebook.fresco:fresco:1.10.0] /Users/technoarray/.gradle/caches/transforms-2/files-2.1/c90fc93b5a7ec4cd8feaada5409d6ac3/AndroidManifest.xml:2:1-9:12
MERGED from [com.facebook.fresco:imagepipeline-okhttp3:1.10.0] /Users/technoarray/.gradle/caches/transforms-2/files-2.1/4323a0f9bfb7ae72517487fa17901746/AndroidManifest.xml:2:1-9:12
MERGED from [com.facebook.fresco:drawee:1.10.0] /Users/technoarray/.gradle/caches/transforms-2/files-2.1/9eae257993c7157047971e25877fba49/AndroidManifest.xml:2:1-9:12
MERGED from [com.facebook.fresco:imagepipeline:1.10.0] /Users/technoarray/.gradle/caches/transforms-2/files-2.1/f36dc0df564ce3623f4fd10664d86ceb/AndroidManifest.xml:2:1-9:12
MERGED from [com.facebook.fresco:imagepipeline-base:1.10.0] /Users/technoarray/.gradle/caches/transforms-2/files-2.1/305d61cfff3166b30f3b367c23e65a15/AndroidManifest.xml:2:1-9:12
MERGED from [com.facebook.soloader:soloader:0.6.0] /Users/technoarray/.gradle/caches/transforms-2/files-2.1/0edceff309ae16bc70283b2b6e09f14d/AndroidManifest.xml:2:1-13:12
MERGED from [com.facebook.fresco:fbcore:1.10.0] /Users/technoarray/.gradle/caches/transforms-2/files-2.1/ddf71122e35b364ee561c38569c0410a/AndroidManifest.xml:2:1-9:12
INJECTED from /Users/technoarray/Downloads/reactnative/dev_projects/Backup Zip/ethera_new/android/app/src/main/AndroidManifest.xml:1:1-46:12
INJECTED from /Users/technoarray/Downloads/reactnative/dev_projects/Backup Zip/ethera_new/android/app/src/main/AndroidManifest.xml:1:1-46:12
INJECTED from /Users/technoarray/Downloads/reactnative/dev_projects/Backup Zip/ethera_new/android/app/src/main/AndroidManifest.xml:1:1-46:12
	package
		ADDED from /Users/technoarray/Downloads/reactnative/dev_projects/Backup Zip/ethera_new/android/app/src/main/AndroidManifest.xml:3:5-28
		INJECTED from /Users/technoarray/Downloads/reactnative/dev_projects/Backup Zip/ethera_new/android/app/src/main/AndroidManifest.xml
		INJECTED from /Users/technoarray/Downloads/reactnative/dev_projects/Backup Zip/ethera_new/android/app/src/main/AndroidManifest.xml
	android:versionName
		INJECTED from /Users/technoarray/Downloads/reactnative/dev_projects/Backup Zip/ethera_new/android/app/src/main/AndroidManifest.xml
		ADDED from /Users/technoarray/Downloads/reactnative/dev_projects/Backup Zip/ethera_new/android/app/src/main/AndroidManifest.xml:1:1-46:12
		INJECTED from /Users/technoarray/Downloads/reactnative/dev_projects/Backup Zip/ethera_new/android/app/src/main/AndroidManifest.xml
	xmlns:tools
		ADDED from /Users/technoarray/Downloads/reactnative/dev_projects/Backup Zip/ethera_new/android/app/src/main/AndroidManifest.xml:2:5-51
	android:versionCode
		INJECTED from /Users/technoarray/Downloads/reactnative/dev_projects/Backup Zip/ethera_new/android/app/src/main/AndroidManifest.xml
		ADDED from /Users/technoarray/Downloads/reactnative/dev_projects/Backup Zip/ethera_new/android/app/src/main/AndroidManifest.xml:1:1-46:12
		INJECTED from /Users/technoarray/Downloads/reactnative/dev_projects/Backup Zip/ethera_new/android/app/src/main/AndroidManifest.xml
	xmlns:android
		ADDED from /Users/technoarray/Downloads/reactnative/dev_projects/Backup Zip/ethera_new/android/app/src/main/AndroidManifest.xml:1:11-69
uses-permission#android.permission.INTERNET
ADDED from /Users/technoarray/Downloads/reactnative/dev_projects/Backup Zip/ethera_new/android/app/src/main/AndroidManifest.xml:5:5-67
MERGED from [:react-native-firebase] /Users/technoarray/Downloads/reactnative/dev_projects/Backup Zip/ethera_new/node_modules/react-native-firebase/android/build/intermediates/library_manifest/release/AndroidManifest.xml:11:5-67
MERGED from [:react-native-firebase] /Users/technoarray/Downloads/reactnative/dev_projects/Backup Zip/ethera_new/node_modules/react-native-firebase/android/build/intermediates/library_manifest/release/AndroidManifest.xml:11:5-67
MERGED from [com.google.android.gms:play-services-measurement-api:16.5.0] /Users/technoarray/.gradle/caches/transforms-2/files-2.1/8c8082a299d3a265bc3be37072b2c92e/AndroidManifest.xml:22:5-67
MERGED from [com.google.android.gms:play-services-measurement-api:16.5.0] /Users/technoarray/.gradle/caches/transforms-2/files-2.1/8c8082a299d3a265bc3be37072b2c92e/AndroidManifest.xml:22:5-67
MERGED from [com.google.firebase:firebase-iid:18.0.0] /Users/technoarray/.gradle/caches/transforms-2/files-2.1/a289c5d6a7a81a5e7e1295fa12184933/AndroidManifest.xml:23:5-67
MERGED from [com.google.firebase:firebase-iid:18.0.0] /Users/technoarray/.gradle/caches/transforms-2/files-2.1/a289c5d6a7a81a5e7e1295fa12184933/AndroidManifest.xml:23:5-67
MERGED from [com.google.android.gms:play-services-measurement:16.5.0] /Users/technoarray/.gradle/caches/transforms-2/files-2.1/c56b7515e00c8206976b8c979c0dc8bc/AndroidManifest.xml:23:5-67
MERGED from [com.google.android.gms:play-services-measurement:16.5.0] /Users/technoarray/.gradle/caches/transforms-2/files-2.1/c56b7515e00c8206976b8c979c0dc8bc/AndroidManifest.xml:23:5-67
MERGED from [com.google.android.gms:play-services-measurement-impl:16.5.0] /Users/technoarray/.gradle/caches/transforms-2/files-2.1/dde9233023bfd4a900e6ef666e546608/AndroidManifest.xml:23:5-67
MERGED from [com.google.android.gms:play-services-measurement-impl:16.5.0] /Users/technoarray/.gradle/caches/transforms-2/files-2.1/dde9233023bfd4a900e6ef666e546608/AndroidManifest.xml:23:5-67
MERGED from [com.google.android.gms:play-services-measurement-sdk-api:16.5.0] /Users/technoarray/.gradle/caches/transforms-2/files-2.1/f0f93d64fa6e27222cc8bf181c65ffe9/AndroidManifest.xml:23:5-67
MERGED from [com.google.android.gms:play-services-measurement-sdk-api:16.5.0] /Users/technoarray/.gradle/caches/transforms-2/files-2.1/f0f93d64fa6e27222cc8bf181c65ffe9/AndroidManifest.xml:23:5-67
	android:name
		ADDED from /Users/technoarray/Downloads/reactnative/dev_projects/Backup Zip/ethera_new/android/app/src/main/AndroidManifest.xml:5:22-64
uses-permission#android.permission.SYSTEM_ALERT_WINDOW
ADDED from /Users/technoarray/Downloads/reactnative/dev_projects/Backup Zip/ethera_new/android/app/src/main/AndroidManifest.xml:6:5-77
MERGED from [:react-native-picker] /Users/technoarray/Downloads/reactnative/dev_projects/Backup Zip/ethera_new/node_modules/react-native-picker/android/build/intermediates/library_manifest/release/AndroidManifest.xml:11:5-78
MERGED from [:react-native-picker] /Users/technoarray/Downloads/reactnative/dev_projects/Backup Zip/ethera_new/node_modules/react-native-picker/android/build/intermediates/library_manifest/release/AndroidManifest.xml:11:5-78
	android:name
		ADDED from /Users/technoarray/Downloads/reactnative/dev_projects/Backup Zip/ethera_new/android/app/src/main/AndroidManifest.xml:6:22-75
uses-permission#android.permission.RECEIVE_BOOT_COMPLETED
ADDED from /Users/technoarray/Downloads/reactnative/dev_projects/Backup Zip/ethera_new/android/app/src/main/AndroidManifest.xml:7:1-77
	android:name
		ADDED from /Users/technoarray/Downloads/reactnative/dev_projects/Backup Zip/ethera_new/android/app/src/main/AndroidManifest.xml:7:18-74
uses-permission#android.permission.VIBRATE
ADDED from /Users/technoarray/Downloads/reactnative/dev_projects/Backup Zip/ethera_new/android/app/src/main/AndroidManifest.xml:8:5-66
	android:name
		ADDED from /Users/technoarray/Downloads/reactnative/dev_projects/Backup Zip/ethera_new/android/app/src/main/AndroidManifest.xml:8:22-63
application
ADDED from /Users/technoarray/Downloads/reactnative/dev_projects/Backup Zip/ethera_new/android/app/src/main/AndroidManifest.xml:9:5-44:19
MERGED from [:react-native-fbsdk] /Users/technoarray/Downloads/reactnative/dev_projects/Backup Zip/ethera_new/node_modules/react-native-fbsdk/android/build/intermediates/library_manifest/release/AndroidManifest.xml:28:5-20
MERGED from [:react-native-fbsdk] /Users/technoarray/Downloads/reactnative/dev_projects/Backup Zip/ethera_new/node_modules/react-native-fbsdk/android/build/intermediates/library_manifest/release/AndroidManifest.xml:28:5-20
MERGED from [com.facebook.react:react-native:0.59.9] /Users/technoarray/.gradle/caches/transforms-2/files-2.1/33d150911909f3cdfed07b7fba0992f7/AndroidManifest.xml:11:5-20
MERGED from [com.facebook.react:react-native:0.59.9] /Users/technoarray/.gradle/caches/transforms-2/files-2.1/33d150911909f3cdfed07b7fba0992f7/AndroidManifest.xml:11:5-20
MERGED from [com.facebook.android:facebook-android-sdk:5.0.3] /Users/technoarray/.gradle/caches/transforms-2/files-2.1/6ae385ef8093b67cef2027a87c602001/AndroidManifest.xml:28:5-29:19
MERGED from [com.facebook.android:facebook-android-sdk:5.0.3] /Users/technoarray/.gradle/caches/transforms-2/files-2.1/6ae385ef8093b67cef2027a87c602001/AndroidManifest.xml:28:5-29:19
MERGED from [com.facebook.android:facebook-login:5.0.3] /Users/technoarray/.gradle/caches/transforms-2/files-2.1/c1381fb8f40a652660cb0158eac000b2/AndroidManifest.xml:28:5-29:19
MERGED from [com.facebook.android:facebook-login:5.0.3] /Users/technoarray/.gradle/caches/transforms-2/files-2.1/c1381fb8f40a652660cb0158eac000b2/AndroidManifest.xml:28:5-29:19
MERGED from [com.facebook.android:facebook-share:5.0.3] /Users/technoarray/.gradle/caches/transforms-2/files-2.1/fe65714cb1c5e0b30fa14a4147fe6266/AndroidManifest.xml:28:5-29:19
MERGED from [com.facebook.android:facebook-share:5.0.3] /Users/technoarray/.gradle/caches/transforms-2/files-2.1/fe65714cb1c5e0b30fa14a4147fe6266/AndroidManifest.xml:28:5-29:19
MERGED from [com.facebook.android:facebook-common:5.0.3] /Users/technoarray/.gradle/caches/transforms-2/files-2.1/79a095e037ea733add2055816fbe736d/AndroidManifest.xml:28:5-35:19
MERGED from [com.facebook.android:facebook-common:5.0.3] /Users/technoarray/.gradle/caches/transforms-2/files-2.1/79a095e037ea733add2055816fbe736d/AndroidManifest.xml:28:5-35:19
MERGED from [com.google.android.gms:play-services-auth:15.0.1] /Users/technoarray/.gradle/caches/transforms-2/files-2.1/f9f3cf3b660c4b383f70107680d1b0c0/AndroidManifest.xml:22:5-37:19
MERGED from [com.google.android.gms:play-services-auth:15.0.1] /Users/technoarray/.gradle/caches/transforms-2/files-2.1/f9f3cf3b660c4b383f70107680d1b0c0/AndroidManifest.xml:22:5-37:19
MERGED from [com.google.firebase:firebase-messaging:18.0.0] /Users/technoarray/.gradle/caches/transforms-2/files-2.1/06ec37d15c4b2590afc72d47c9a7a199/AndroidManifest.xml:22:5-35:19
MERGED from [com.google.firebase:firebase-messaging:18.0.0] /Users/technoarray/.gradle/caches/transforms-2/files-2.1/06ec37d15c4b2590afc72d47c9a7a199/AndroidManifest.xml:22:5-35:19
MERGED from [com.google.firebase:firebase-core:16.0.9] /Users/technoarray/.gradle/caches/transforms-2/files-2.1/8a92e9e6b438ba3e640ab40705b788c8/AndroidManifest.xml:7:5-20
MERGED from [com.google.firebase:firebase-core:16.0.9] /Users/technoarray/.gradle/caches/transforms-2/files-2.1/8a92e9e6b438ba3e640ab40705b788c8/AndroidManifest.xml:7:5-20
MERGED from [com.google.firebase:firebase-analytics:16.5.0] /Users/technoarray/.gradle/caches/transforms-2/files-2.1/309b9a6cc2b439e0b00c5677d0c63b16/AndroidManifest.xml:7:5-20
MERGED from [com.google.firebase:firebase-analytics:16.5.0] /Users/technoarray/.gradle/caches/transforms-2/files-2.1/309b9a6cc2b439e0b00c5677d0c63b16/AndroidManifest.xml:7:5-20
MERGED from [com.google.android.gms:play-services-measurement-api:16.5.0] /Users/technoarray/.gradle/caches/transforms-2/files-2.1/8c8082a299d3a265bc3be37072b2c92e/AndroidManifest.xml:26:5-34:19
MERGED from [com.google.android.gms:play-services-measurement-api:16.5.0] /Users/technoarray/.gradle/caches/transforms-2/files-2.1/8c8082a299d3a265bc3be37072b2c92e/AndroidManifest.xml:26:5-34:19
MERGED from [com.google.firebase:firebase-iid:18.0.0] /Users/technoarray/.gradle/caches/transforms-2/files-2.1/a289c5d6a7a81a5e7e1295fa12184933/AndroidManifest.xml:28:5-45:19
MERGED from [com.google.firebase:firebase-iid:18.0.0] /Users/technoarray/.gradle/caches/transforms-2/files-2.1/a289c5d6a7a81a5e7e1295fa12184933/AndroidManifest.xml:28:5-45:19
MERGED from [com.google.firebase:firebase-iid-interop:16.0.1] /Users/technoarray/.gradle/caches/transforms-2/files-2.1/b2dd9ff1529d756e52a7dbbfc9391e49/AndroidManifest.xml:7:5-8:19
MERGED from [com.google.firebase:firebase-iid-interop:16.0.1] /Users/technoarray/.gradle/caches/transforms-2/files-2.1/b2dd9ff1529d756e52a7dbbfc9391e49/AndroidManifest.xml:7:5-8:19
MERGED from [com.google.android.gms:play-services-base:17.0.0] /Users/technoarray/.gradle/caches/transforms-2/files-2.1/6baa836efd8ab2d02a51aaa1f4438ae3/AndroidManifest.xml:22:5-27:19
MERGED from [com.google.android.gms:play-services-base:17.0.0] /Users/technoarray/.gradle/caches/transforms-2/files-2.1/6baa836efd8ab2d02a51aaa1f4438ae3/AndroidManifest.xml:22:5-27:19
MERGED from [com.google.firebase:firebase-common:17.0.0] /Users/technoarray/.gradle/caches/transforms-2/files-2.1/c8c4ee766e6a60a1d8bf1ae304e5202b/AndroidManifest.xml:11:5-17:19
MERGED from [com.google.firebase:firebase-common:17.0.0] /Users/technoarray/.gradle/caches/transforms-2/files-2.1/c8c4ee766e6a60a1d8bf1ae304e5202b/AndroidManifest.xml:11:5-17:19
MERGED from [com.google.android.gms:play-services-tasks:17.0.0] /Users/technoarray/.gradle/caches/transforms-2/files-2.1/10f6d992c711aa85366897e0ceb6d9de/AndroidManifest.xml:7:5-20
MERGED from [com.google.android.gms:play-services-tasks:17.0.0] /Users/technoarray/.gradle/caches/transforms-2/files-2.1/10f6d992c711aa85366897e0ceb6d9de/AndroidManifest.xml:7:5-20
MERGED from [com.google.firebase:firebase-measurement-connector:17.0.1] /Users/technoarray/.gradle/caches/transforms-2/files-2.1/dd0ac1fa22f3ea4e3f6eaeb4a7eb2810/AndroidManifest.xml:22:5-23:19
MERGED from [com.google.firebase:firebase-measurement-connector:17.0.1] /Users/technoarray/.gradle/caches/transforms-2/files-2.1/dd0ac1fa22f3ea4e3f6eaeb4a7eb2810/AndroidManifest.xml:22:5-23:19
MERGED from [com.google.android.gms:play-services-measurement:16.5.0] /Users/technoarray/.gradle/caches/transforms-2/files-2.1/c56b7515e00c8206976b8c979c0dc8bc/AndroidManifest.xml:28:5-53:19
MERGED from [com.google.android.gms:play-services-measurement:16.5.0] /Users/technoarray/.gradle/caches/transforms-2/files-2.1/c56b7515e00c8206976b8c979c0dc8bc/AndroidManifest.xml:28:5-53:19
MERGED from [com.google.android.gms:play-services-measurement-sdk:16.5.0] /Users/technoarray/.gradle/caches/transforms-2/files-2.1/7fa955c2218c8a34b6f2f5be83cd89a5/AndroidManifest.xml:22:5-23:19
MERGED from [com.google.android.gms:play-services-measurement-sdk:16.5.0] /Users/technoarray/.gradle/caches/transforms-2/files-2.1/7fa955c2218c8a34b6f2f5be83cd89a5/AndroidManifest.xml:22:5-23:19
MERGED from [com.google.android.gms:play-services-measurement-impl:16.5.0] /Users/technoarray/.gradle/caches/transforms-2/files-2.1/dde9233023bfd4a900e6ef666e546608/AndroidManifest.xml:28:5-38:19
MERGED from [com.google.android.gms:play-services-measurement-impl:16.5.0] /Users/technoarray/.gradle/caches/transforms-2/files-2.1/dde9233023bfd4a900e6ef666e546608/AndroidManifest.xml:28:5-38:19
MERGED from [com.google.android.gms:play-services-stats:16.0.1] /Users/technoarray/.gradle/caches/transforms-2/files-2.1/d24758a27e83e7afac0ae8cc760d6033/AndroidManifest.xml:7:5-20
MERGED from [com.google.android.gms:play-services-stats:16.0.1] /Users/technoarray/.gradle/caches/transforms-2/files-2.1/d24758a27e83e7afac0ae8cc760d6033/AndroidManifest.xml:7:5-20
MERGED from [com.google.android.gms:play-services-measurement-sdk-api:16.5.0] /Users/technoarray/.gradle/caches/transforms-2/files-2.1/f0f93d64fa6e27222cc8bf181c65ffe9/AndroidManifest.xml:28:5-38:19
MERGED from [com.google.android.gms:play-services-measurement-sdk-api:16.5.0] /Users/technoarray/.gradle/caches/transforms-2/files-2.1/f0f93d64fa6e27222cc8bf181c65ffe9/AndroidManifest.xml:28:5-38:19
MERGED from [com.google.android.gms:play-services-measurement-base:16.5.0] /Users/technoarray/.gradle/caches/transforms-2/files-2.1/fb07b62dc999833d13484c6b9a175fd2/AndroidManifest.xml:7:5-20
MERGED from [com.google.android.gms:play-services-measurement-base:16.5.0] /Users/technoarray/.gradle/caches/transforms-2/files-2.1/fb07b62dc999833d13484c6b9a175fd2/AndroidManifest.xml:7:5-20
MERGED from [com.google.android.gms:play-services-ads-identifier:16.0.0] /Users/technoarray/.gradle/caches/transforms-2/files-2.1/96c6403c9a1fa11fd35b4c97db086c6c/AndroidManifest.xml:22:5-20
MERGED from [com.google.android.gms:play-services-ads-identifier:16.0.0] /Users/technoarray/.gradle/caches/transforms-2/files-2.1/96c6403c9a1fa11fd35b4c97db086c6c/AndroidManifest.xml:22:5-20
MERGED from [com.google.android.gms:play-services-basement:17.0.0] /Users/technoarray/.gradle/caches/transforms-2/files-2.1/36ed4465b6c90911a489c2ccf3e961b4/AndroidManifest.xml:22:5-26:19
MERGED from [com.google.android.gms:play-services-basement:17.0.0] /Users/technoarray/.gradle/caches/transforms-2/files-2.1/36ed4465b6c90911a489c2ccf3e961b4/AndroidManifest.xml:22:5-26:19
MERGED from [com.facebook.android:facebook-places:5.0.3] /Users/technoarray/.gradle/caches/transforms-2/files-2.1/c88ab467f430c5bf0d5b921ac99f71fa/AndroidManifest.xml:28:5-29:19
MERGED from [com.facebook.android:facebook-places:5.0.3] /Users/technoarray/.gradle/caches/transforms-2/files-2.1/c88ab467f430c5bf0d5b921ac99f71fa/AndroidManifest.xml:28:5-29:19
MERGED from [com.facebook.android:facebook-applinks:5.0.3] /Users/technoarray/.gradle/caches/transforms-2/files-2.1/6208730f2536726b9c38d5d64ec99f02/AndroidManifest.xml:28:5-29:19
MERGED from [com.facebook.android:facebook-applinks:5.0.3] /Users/technoarray/.gradle/caches/transforms-2/files-2.1/6208730f2536726b9c38d5d64ec99f02/AndroidManifest.xml:28:5-29:19
MERGED from [com.facebook.android:facebook-messenger:5.0.3] /Users/technoarray/.gradle/caches/transforms-2/files-2.1/b40f717f885530e526e7ae642c11c4f7/AndroidManifest.xml:28:5-29:19
MERGED from [com.facebook.android:facebook-messenger:5.0.3] /Users/technoarray/.gradle/caches/transforms-2/files-2.1/b40f717f885530e526e7ae642c11c4f7/AndroidManifest.xml:28:5-29:19
MERGED from [com.facebook.android:facebook-core:5.0.3] /Users/technoarray/.gradle/caches/transforms-2/files-2.1/f891ebaa0645e1dfb0de68d17a9ebb5a/AndroidManifest.xml:28:5-59:19
MERGED from [com.facebook.android:facebook-core:5.0.3] /Users/technoarray/.gradle/caches/transforms-2/files-2.1/f891ebaa0645e1dfb0de68d17a9ebb5a/AndroidManifest.xml:28:5-59:19
MERGED from [androidx.core:core:1.0.1] /Users/technoarray/.gradle/caches/transforms-2/files-2.1/e82bcc38e5da19011d0395add25d9201/AndroidManifest.xml:22:5-89
MERGED from [androidx.core:core:1.0.1] /Users/technoarray/.gradle/caches/transforms-2/files-2.1/e82bcc38e5da19011d0395add25d9201/AndroidManifest.xml:22:5-89
MERGED from [androidx.versionedparcelable:versionedparcelable:1.0.0] /Users/technoarray/.gradle/caches/transforms-2/files-2.1/9c80c57b3f53b9259fe96ef35e8e7084/AndroidManifest.xml:22:5-23:19
MERGED from [androidx.versionedparcelable:versionedparcelable:1.0.0] /Users/technoarray/.gradle/caches/transforms-2/files-2.1/9c80c57b3f53b9259fe96ef35e8e7084/AndroidManifest.xml:22:5-23:19
MERGED from [com.facebook.soloader:soloader:0.6.0] /Users/technoarray/.gradle/caches/transforms-2/files-2.1/0edceff309ae16bc70283b2b6e09f14d/AndroidManifest.xml:11:5-20
MERGED from [com.facebook.soloader:soloader:0.6.0] /Users/technoarray/.gradle/caches/transforms-2/files-2.1/0edceff309ae16bc70283b2b6e09f14d/AndroidManifest.xml:11:5-20
	android:appComponentFactory
		ADDED from [androidx.core:core:1.0.1] /Users/technoarray/.gradle/caches/transforms-2/files-2.1/e82bcc38e5da19011d0395add25d9201/AndroidManifest.xml:22:18-86
	android:supportsRtl
		ADDED from [com.facebook.android:facebook-android-sdk:5.0.3] /Users/technoarray/.gradle/caches/transforms-2/files-2.1/6ae385ef8093b67cef2027a87c602001/AndroidManifest.xml:28:18-44
	android:label
		ADDED from /Users/technoarray/Downloads/reactnative/dev_projects/Backup Zip/ethera_new/android/app/src/main/AndroidManifest.xml:11:7-39
	tools:ignore
		ADDED from /Users/technoarray/Downloads/reactnative/dev_projects/Backup Zip/ethera_new/android/app/src/main/AndroidManifest.xml:15:9-48
	android:icon
		ADDED from /Users/technoarray/Downloads/reactnative/dev_projects/Backup Zip/ethera_new/android/app/src/main/AndroidManifest.xml:12:7-41
	android:allowBackup
		ADDED from /Users/technoarray/Downloads/reactnative/dev_projects/Backup Zip/ethera_new/android/app/src/main/AndroidManifest.xml:13:7-34
	android:theme
		ADDED from /Users/technoarray/Downloads/reactnative/dev_projects/Backup Zip/ethera_new/android/app/src/main/AndroidManifest.xml:14:7-38
	android:name
		ADDED from /Users/technoarray/Downloads/reactnative/dev_projects/Backup Zip/ethera_new/android/app/src/main/AndroidManifest.xml:10:7-38
service#io.invertase.firebase.messaging.RNFirebaseMessagingService
ADDED from /Users/technoarray/Downloads/reactnative/dev_projects/Backup Zip/ethera_new/android/app/src/main/AndroidManifest.xml:16:8-20:17
	android:name
		ADDED from /Users/technoarray/Downloads/reactnative/dev_projects/Backup Zip/ethera_new/android/app/src/main/AndroidManifest.xml:16:17-90
intent-filter#action:name:com.google.firebase.MESSAGING_EVENT
ADDED from /Users/technoarray/Downloads/reactnative/dev_projects/Backup Zip/ethera_new/android/app/src/main/AndroidManifest.xml:17:9-19:25
action#com.google.firebase.MESSAGING_EVENT
ADDED from /Users/technoarray/Downloads/reactnative/dev_projects/Backup Zip/ethera_new/android/app/src/main/AndroidManifest.xml:18:11-72
	android:name
		ADDED from /Users/technoarray/Downloads/reactnative/dev_projects/Backup Zip/ethera_new/android/app/src/main/AndroidManifest.xml:18:19-69
service#io.invertase.firebase.messaging.RNFirebaseInstanceIdService
ADDED from /Users/technoarray/Downloads/reactnative/dev_projects/Backup Zip/ethera_new/android/app/src/main/AndroidManifest.xml:21:7-25:17
	android:name
		ADDED from /Users/technoarray/Downloads/reactnative/dev_projects/Backup Zip/ethera_new/android/app/src/main/AndroidManifest.xml:21:16-90
intent-filter#action:name:com.google.firebase.INSTANCE_ID_EVENT
ADDED from /Users/technoarray/Downloads/reactnative/dev_projects/Backup Zip/ethera_new/android/app/src/main/AndroidManifest.xml:22:9-24:25
action#com.google.firebase.INSTANCE_ID_EVENT
ADDED from /Users/technoarray/Downloads/reactnative/dev_projects/Backup Zip/ethera_new/android/app/src/main/AndroidManifest.xml:23:11-73
	android:name
		ADDED from /Users/technoarray/Downloads/reactnative/dev_projects/Backup Zip/ethera_new/android/app/src/main/AndroidManifest.xml:23:19-71
meta-data#com.facebook.sdk.ApplicationId
ADDED from /Users/technoarray/Downloads/reactnative/dev_projects/Backup Zip/ethera_new/android/app/src/main/AndroidManifest.xml:26:9-27:54
	android:value
		ADDED from /Users/technoarray/Downloads/reactnative/dev_projects/Backup Zip/ethera_new/android/app/src/main/AndroidManifest.xml:27:13-52
	android:name
		ADDED from /Users/technoarray/Downloads/reactnative/dev_projects/Backup Zip/ethera_new/android/app/src/main/AndroidManifest.xml:26:20-65
activity#com.facebook.FacebookActivity
ADDED from /Users/technoarray/Downloads/reactnative/dev_projects/Backup Zip/ethera_new/android/app/src/main/AndroidManifest.xml:29:9-32:48
MERGED from [com.facebook.android:facebook-common:5.0.3] /Users/technoarray/.gradle/caches/transforms-2/files-2.1/79a095e037ea733add2055816fbe736d/AndroidManifest.xml:29:9-32:66
MERGED from [com.facebook.android:facebook-common:5.0.3] /Users/technoarray/.gradle/caches/transforms-2/files-2.1/79a095e037ea733add2055816fbe736d/AndroidManifest.xml:29:9-32:66
	android:label
		ADDED from /Users/technoarray/Downloads/reactnative/dev_projects/Backup Zip/ethera_new/android/app/src/main/AndroidManifest.xml:32:13-45
	android:configChanges
		ADDED from /Users/technoarray/Downloads/reactnative/dev_projects/Backup Zip/ethera_new/android/app/src/main/AndroidManifest.xml:30:13-113
	android:theme
		ADDED from [com.facebook.android:facebook-common:5.0.3] /Users/technoarray/.gradle/caches/transforms-2/files-2.1/79a095e037ea733add2055816fbe736d/AndroidManifest.xml:32:13-63
	android:name
		ADDED from /Users/technoarray/Downloads/reactnative/dev_projects/Backup Zip/ethera_new/android/app/src/main/AndroidManifest.xml:29:19-63
activity#com.etheraapp.MainActivity
ADDED from /Users/technoarray/Downloads/reactnative/dev_projects/Backup Zip/ethera_new/android/app/src/main/AndroidManifest.xml:33:7-42:18
	android:label
		ADDED from /Users/technoarray/Downloads/reactnative/dev_projects/Backup Zip/ethera_new/android/app/src/main/AndroidManifest.xml:35:9-41
	android:windowSoftInputMode
		ADDED from /Users/technoarray/Downloads/reactnative/dev_projects/Backup Zip/ethera_new/android/app/src/main/AndroidManifest.xml:37:9-51
	android:configChanges
		ADDED from /Users/technoarray/Downloads/reactnative/dev_projects/Backup Zip/ethera_new/android/app/src/main/AndroidManifest.xml:36:9-79
	android:name
		ADDED from /Users/technoarray/Downloads/reactnative/dev_projects/Backup Zip/ethera_new/android/app/src/main/AndroidManifest.xml:34:9-37
intent-filter#action:name:android.intent.action.MAIN+category:name:android.intent.category.LAUNCHER
ADDED from /Users/technoarray/Downloads/reactnative/dev_projects/Backup Zip/ethera_new/android/app/src/main/AndroidManifest.xml:38:9-41:25
action#android.intent.action.MAIN
ADDED from /Users/technoarray/Downloads/reactnative/dev_projects/Backup Zip/ethera_new/android/app/src/main/AndroidManifest.xml:39:13-65
	android:name
		ADDED from /Users/technoarray/Downloads/reactnative/dev_projects/Backup Zip/ethera_new/android/app/src/main/AndroidManifest.xml:39:21-62
category#android.intent.category.LAUNCHER
ADDED from /Users/technoarray/Downloads/reactnative/dev_projects/Backup Zip/ethera_new/android/app/src/main/AndroidManifest.xml:40:13-73
	android:name
		ADDED from /Users/technoarray/Downloads/reactnative/dev_projects/Backup Zip/ethera_new/android/app/src/main/AndroidManifest.xml:40:23-70
activity#com.facebook.react.devsupport.DevSettingsActivity
ADDED from /Users/technoarray/Downloads/reactnative/dev_projects/Backup Zip/ethera_new/android/app/src/main/AndroidManifest.xml:43:7-84
	android:name
		ADDED from /Users/technoarray/Downloads/reactnative/dev_projects/Backup Zip/ethera_new/android/app/src/main/AndroidManifest.xml:43:17-81
uses-sdk
INJECTED from /Users/technoarray/Downloads/reactnative/dev_projects/Backup Zip/ethera_new/android/app/src/main/AndroidManifest.xml reason: use-sdk injection requested
INJECTED from /Users/technoarray/Downloads/reactnative/dev_projects/Backup Zip/ethera_new/android/app/src/main/AndroidManifest.xml
INJECTED from /Users/technoarray/Downloads/reactnative/dev_projects/Backup Zip/ethera_new/android/app/src/main/AndroidManifest.xml
MERGED from [:react-native-linear-gradient] /Users/technoarray/Downloads/reactnative/dev_projects/Backup Zip/ethera_new/node_modules/react-native-linear-gradient/android/build/intermediates/library_manifest/release/AndroidManifest.xml:7:5-9:41
MERGED from [:react-native-linear-gradient] /Users/technoarray/Downloads/reactnative/dev_projects/Backup Zip/ethera_new/node_modules/react-native-linear-gradient/android/build/intermediates/library_manifest/release/AndroidManifest.xml:7:5-9:41
MERGED from [:react-native-fbsdk] /Users/technoarray/Downloads/reactnative/dev_projects/Backup Zip/ethera_new/node_modules/react-native-fbsdk/android/build/intermediates/library_manifest/release/AndroidManifest.xml:24:5-26:41
MERGED from [:react-native-fbsdk] /Users/technoarray/Downloads/reactnative/dev_projects/Backup Zip/ethera_new/node_modules/react-native-fbsdk/android/build/intermediates/library_manifest/release/AndroidManifest.xml:24:5-26:41
MERGED from [:react-native-smart-splash-screen] /Users/technoarray/Downloads/reactnative/dev_projects/Backup Zip/ethera_new/node_modules/react-native-smart-splash-screen/android/build/intermediates/library_manifest/release/AndroidManifest.xml:7:5-9:41
MERGED from [:react-native-smart-splash-screen] /Users/technoarray/Downloads/reactnative/dev_projects/Backup Zip/ethera_new/node_modules/react-native-smart-splash-screen/android/build/intermediates/library_manifest/release/AndroidManifest.xml:7:5-9:41
MERGED from [:react-native-google-signin] /Users/technoarray/Downloads/reactnative/dev_projects/Backup Zip/ethera_new/node_modules/react-native-google-signin/android/build/intermediates/library_manifest/release/AndroidManifest.xml:7:5-9:41
MERGED from [:react-native-google-signin] /Users/technoarray/Downloads/reactnative/dev_projects/Backup Zip/ethera_new/node_modules/react-native-google-signin/android/build/intermediates/library_manifest/release/AndroidManifest.xml:7:5-9:41
MERGED from [:react-native-firebase] /Users/technoarray/Downloads/reactnative/dev_projects/Backup Zip/ethera_new/node_modules/react-native-firebase/android/build/intermediates/library_manifest/release/AndroidManifest.xml:7:5-9:41
MERGED from [:react-native-firebase] /Users/technoarray/Downloads/reactnative/dev_projects/Backup Zip/ethera_new/node_modules/react-native-firebase/android/build/intermediates/library_manifest/release/AndroidManifest.xml:7:5-9:41
MERGED from [:react-native-picker] /Users/technoarray/Downloads/reactnative/dev_projects/Backup Zip/ethera_new/node_modules/react-native-picker/android/build/intermediates/library_manifest/release/AndroidManifest.xml:7:5-9:41
MERGED from [:react-native-picker] /Users/technoarray/Downloads/reactnative/dev_projects/Backup Zip/ethera_new/node_modules/react-native-picker/android/build/intermediates/library_manifest/release/AndroidManifest.xml:7:5-9:41
MERGED from [:react-native-orientation] /Users/technoarray/Downloads/reactnative/dev_projects/Backup Zip/ethera_new/node_modules/react-native-orientation/android/build/intermediates/library_manifest/release/AndroidManifest.xml:7:5-9:41
MERGED from [:react-native-orientation] /Users/technoarray/Downloads/reactnative/dev_projects/Backup Zip/ethera_new/node_modules/react-native-orientation/android/build/intermediates/library_manifest/release/AndroidManifest.xml:7:5-9:41
MERGED from [:react-native-wheel-picker] /Users/technoarray/Downloads/reactnative/dev_projects/Backup Zip/ethera_new/node_modules/react-native-wheel-picker/android/build/intermediates/library_manifest/release/AndroidManifest.xml:7:5-9:41
MERGED from [:react-native-wheel-picker] /Users/technoarray/Downloads/reactnative/dev_projects/Backup Zip/ethera_new/node_modules/react-native-wheel-picker/android/build/intermediates/library_manifest/release/AndroidManifest.xml:7:5-9:41
MERGED from [:react-native-vector-icons] /Users/technoarray/Downloads/reactnative/dev_projects/Backup Zip/ethera_new/node_modules/react-native-vector-icons/android/build/intermediates/library_manifest/release/AndroidManifest.xml:7:5-9:41
MERGED from [:react-native-vector-icons] /Users/technoarray/Downloads/reactnative/dev_projects/Backup Zip/ethera_new/node_modules/react-native-vector-icons/android/build/intermediates/library_manifest/release/AndroidManifest.xml:7:5-9:41
MERGED from [com.facebook.react:react-native:0.59.9] /Users/technoarray/.gradle/caches/transforms-2/files-2.1/33d150911909f3cdfed07b7fba0992f7/AndroidManifest.xml:7:5-9:41
MERGED from [com.facebook.react:react-native:0.59.9] /Users/technoarray/.gradle/caches/transforms-2/files-2.1/33d150911909f3cdfed07b7fba0992f7/AndroidManifest.xml:7:5-9:41
MERGED from [com.facebook.android:facebook-android-sdk:5.0.3] /Users/technoarray/.gradle/caches/transforms-2/files-2.1/6ae385ef8093b67cef2027a87c602001/AndroidManifest.xml:24:5-26:41
MERGED from [com.facebook.android:facebook-android-sdk:5.0.3] /Users/technoarray/.gradle/caches/transforms-2/files-2.1/6ae385ef8093b67cef2027a87c602001/AndroidManifest.xml:24:5-26:41
MERGED from [com.facebook.android:facebook-login:5.0.3] /Users/technoarray/.gradle/caches/transforms-2/files-2.1/c1381fb8f40a652660cb0158eac000b2/AndroidManifest.xml:24:5-26:41
MERGED from [com.facebook.android:facebook-login:5.0.3] /Users/technoarray/.gradle/caches/transforms-2/files-2.1/c1381fb8f40a652660cb0158eac000b2/AndroidManifest.xml:24:5-26:41
MERGED from [com.facebook.android:facebook-share:5.0.3] /Users/technoarray/.gradle/caches/transforms-2/files-2.1/fe65714cb1c5e0b30fa14a4147fe6266/AndroidManifest.xml:24:5-26:41
MERGED from [com.facebook.android:facebook-share:5.0.3] /Users/technoarray/.gradle/caches/transforms-2/files-2.1/fe65714cb1c5e0b30fa14a4147fe6266/AndroidManifest.xml:24:5-26:41
MERGED from [com.facebook.android:facebook-common:5.0.3] /Users/technoarray/.gradle/caches/transforms-2/files-2.1/79a095e037ea733add2055816fbe736d/AndroidManifest.xml:24:5-26:41
MERGED from [com.facebook.android:facebook-common:5.0.3] /Users/technoarray/.gradle/caches/transforms-2/files-2.1/79a095e037ea733add2055816fbe736d/AndroidManifest.xml:24:5-26:41
MERGED from [androidx.appcompat:appcompat:1.0.2] /Users/technoarray/.gradle/caches/transforms-2/files-2.1/7d3d05d49151e758d7ff66b3908a638c/AndroidManifest.xml:20:5-44
MERGED from [androidx.appcompat:appcompat:1.0.2] /Users/technoarray/.gradle/caches/transforms-2/files-2.1/7d3d05d49151e758d7ff66b3908a638c/AndroidManifest.xml:20:5-44
MERGED from [:react-native-sound] /Users/technoarray/Downloads/reactnative/dev_projects/Backup Zip/ethera_new/node_modules/react-native-sound/android/build/intermediates/library_manifest/release/AndroidManifest.xml:8:5-10:41
MERGED from [:react-native-sound] /Users/technoarray/Downloads/reactnative/dev_projects/Backup Zip/ethera_new/node_modules/react-native-sound/android/build/intermediates/library_manifest/release/AndroidManifest.xml:8:5-10:41
MERGED from [androidx.legacy:legacy-support-v4:1.0.0] /Users/technoarray/.gradle/caches/transforms-2/files-2.1/0a9cf984cc5061bb138e023c5ff796c6/AndroidManifest.xml:20:5-44
MERGED from [androidx.legacy:legacy-support-v4:1.0.0] /Users/technoarray/.gradle/caches/transforms-2/files-2.1/0a9cf984cc5061bb138e023c5ff796c6/AndroidManifest.xml:20:5-44
MERGED from [com.google.android.gms:play-services-auth:15.0.1] /Users/technoarray/.gradle/caches/transforms-2/files-2.1/f9f3cf3b660c4b383f70107680d1b0c0/AndroidManifest.xml:20:5-44
MERGED from [com.google.android.gms:play-services-auth:15.0.1] /Users/technoarray/.gradle/caches/transforms-2/files-2.1/f9f3cf3b660c4b383f70107680d1b0c0/AndroidManifest.xml:20:5-44
MERGED from [com.google.android.gms:play-services-auth-api-phone:15.0.1] /Users/technoarray/.gradle/caches/transforms-2/files-2.1/cd9ecebcaaa63fe70312028982057c59/AndroidManifest.xml:5:5-44
MERGED from [com.google.android.gms:play-services-auth-api-phone:15.0.1] /Users/technoarray/.gradle/caches/transforms-2/files-2.1/cd9ecebcaaa63fe70312028982057c59/AndroidManifest.xml:5:5-44
MERGED from [com.google.android.gms:play-services-auth-base:15.0.1] /Users/technoarray/.gradle/caches/transforms-2/files-2.1/97de68e7f841c720723cd141d3a91df5/AndroidManifest.xml:5:5-44
MERGED from [com.google.android.gms:play-services-auth-base:15.0.1] /Users/technoarray/.gradle/caches/transforms-2/files-2.1/97de68e7f841c720723cd141d3a91df5/AndroidManifest.xml:5:5-44
MERGED from [com.google.firebase:firebase-messaging:18.0.0] /Users/technoarray/.gradle/caches/transforms-2/files-2.1/06ec37d15c4b2590afc72d47c9a7a199/AndroidManifest.xml:20:5-44
MERGED from [com.google.firebase:firebase-messaging:18.0.0] /Users/technoarray/.gradle/caches/transforms-2/files-2.1/06ec37d15c4b2590afc72d47c9a7a199/AndroidManifest.xml:20:5-44
MERGED from [com.google.firebase:firebase-core:16.0.9] /Users/technoarray/.gradle/caches/transforms-2/files-2.1/8a92e9e6b438ba3e640ab40705b788c8/AndroidManifest.xml:5:5-44
MERGED from [com.google.firebase:firebase-core:16.0.9] /Users/technoarray/.gradle/caches/transforms-2/files-2.1/8a92e9e6b438ba3e640ab40705b788c8/AndroidManifest.xml:5:5-44
MERGED from [com.google.firebase:firebase-analytics:16.5.0] /Users/technoarray/.gradle/caches/transforms-2/files-2.1/309b9a6cc2b439e0b00c5677d0c63b16/AndroidManifest.xml:5:5-44
MERGED from [com.google.firebase:firebase-analytics:16.5.0] /Users/technoarray/.gradle/caches/transforms-2/files-2.1/309b9a6cc2b439e0b00c5677d0c63b16/AndroidManifest.xml:5:5-44
MERGED from [com.google.android.gms:play-services-measurement-api:16.5.0] /Users/technoarray/.gradle/caches/transforms-2/files-2.1/8c8082a299d3a265bc3be37072b2c92e/AndroidManifest.xml:20:5-44
MERGED from [com.google.android.gms:play-services-measurement-api:16.5.0] /Users/technoarray/.gradle/caches/transforms-2/files-2.1/8c8082a299d3a265bc3be37072b2c92e/AndroidManifest.xml:20:5-44
MERGED from [com.google.firebase:firebase-iid:18.0.0] /Users/technoarray/.gradle/caches/transforms-2/files-2.1/a289c5d6a7a81a5e7e1295fa12184933/AndroidManifest.xml:20:5-44
MERGED from [com.google.firebase:firebase-iid:18.0.0] /Users/technoarray/.gradle/caches/transforms-2/files-2.1/a289c5d6a7a81a5e7e1295fa12184933/AndroidManifest.xml:20:5-44
MERGED from [com.google.firebase:firebase-iid-interop:16.0.1] /Users/technoarray/.gradle/caches/transforms-2/files-2.1/b2dd9ff1529d756e52a7dbbfc9391e49/AndroidManifest.xml:5:5-44
MERGED from [com.google.firebase:firebase-iid-interop:16.0.1] /Users/technoarray/.gradle/caches/transforms-2/files-2.1/b2dd9ff1529d756e52a7dbbfc9391e49/AndroidManifest.xml:5:5-44
MERGED from [com.google.android.gms:play-services-base:17.0.0] /Users/technoarray/.gradle/caches/transforms-2/files-2.1/6baa836efd8ab2d02a51aaa1f4438ae3/AndroidManifest.xml:20:5-44
MERGED from [com.google.android.gms:play-services-base:17.0.0] /Users/technoarray/.gradle/caches/transforms-2/files-2.1/6baa836efd8ab2d02a51aaa1f4438ae3/AndroidManifest.xml:20:5-44
MERGED from [androidx.multidex:multidex:2.0.0] /Users/technoarray/.gradle/caches/transforms-2/files-2.1/b28afd9852af8f2d4534ed71268015f0/AndroidManifest.xml:20:5-43
MERGED from [androidx.multidex:multidex:2.0.0] /Users/technoarray/.gradle/caches/transforms-2/files-2.1/b28afd9852af8f2d4534ed71268015f0/AndroidManifest.xml:20:5-43
MERGED from [com.google.firebase:firebase-common:17.0.0] /Users/technoarray/.gradle/caches/transforms-2/files-2.1/c8c4ee766e6a60a1d8bf1ae304e5202b/AndroidManifest.xml:6:5-8:41
MERGED from [com.google.firebase:firebase-common:17.0.0] /Users/technoarray/.gradle/caches/transforms-2/files-2.1/c8c4ee766e6a60a1d8bf1ae304e5202b/AndroidManifest.xml:6:5-8:41
MERGED from [com.google.android.gms:play-services-tasks:17.0.0] /Users/technoarray/.gradle/caches/transforms-2/files-2.1/10f6d992c711aa85366897e0ceb6d9de/AndroidManifest.xml:5:5-44
MERGED from [com.google.android.gms:play-services-tasks:17.0.0] /Users/technoarray/.gradle/caches/transforms-2/files-2.1/10f6d992c711aa85366897e0ceb6d9de/AndroidManifest.xml:5:5-44
MERGED from [com.google.firebase:firebase-measurement-connector:17.0.1] /Users/technoarray/.gradle/caches/transforms-2/files-2.1/dd0ac1fa22f3ea4e3f6eaeb4a7eb2810/AndroidManifest.xml:20:5-44
MERGED from [com.google.firebase:firebase-measurement-connector:17.0.1] /Users/technoarray/.gradle/caches/transforms-2/files-2.1/dd0ac1fa22f3ea4e3f6eaeb4a7eb2810/AndroidManifest.xml:20:5-44
MERGED from [com.google.android.gms:play-services-measurement:16.5.0] /Users/technoarray/.gradle/caches/transforms-2/files-2.1/c56b7515e00c8206976b8c979c0dc8bc/AndroidManifest.xml:20:5-44
MERGED from [com.google.android.gms:play-services-measurement:16.5.0] /Users/technoarray/.gradle/caches/transforms-2/files-2.1/c56b7515e00c8206976b8c979c0dc8bc/AndroidManifest.xml:20:5-44
MERGED from [com.google.android.gms:play-services-measurement-sdk:16.5.0] /Users/technoarray/.gradle/caches/transforms-2/files-2.1/7fa955c2218c8a34b6f2f5be83cd89a5/AndroidManifest.xml:20:5-44
MERGED from [com.google.android.gms:play-services-measurement-sdk:16.5.0] /Users/technoarray/.gradle/caches/transforms-2/files-2.1/7fa955c2218c8a34b6f2f5be83cd89a5/AndroidManifest.xml:20:5-44
MERGED from [com.google.android.gms:play-services-measurement-impl:16.5.0] /Users/technoarray/.gradle/caches/transforms-2/files-2.1/dde9233023bfd4a900e6ef666e546608/AndroidManifest.xml:20:5-44
MERGED from [com.google.android.gms:play-services-measurement-impl:16.5.0] /Users/technoarray/.gradle/caches/transforms-2/files-2.1/dde9233023bfd4a900e6ef666e546608/AndroidManifest.xml:20:5-44
MERGED from [com.google.android.gms:play-services-stats:16.0.1] /Users/technoarray/.gradle/caches/transforms-2/files-2.1/d24758a27e83e7afac0ae8cc760d6033/AndroidManifest.xml:5:5-44
MERGED from [com.google.android.gms:play-services-stats:16.0.1] /Users/technoarray/.gradle/caches/transforms-2/files-2.1/d24758a27e83e7afac0ae8cc760d6033/AndroidManifest.xml:5:5-44
MERGED from [com.google.android.gms:play-services-measurement-sdk-api:16.5.0] /Users/technoarray/.gradle/caches/transforms-2/files-2.1/f0f93d64fa6e27222cc8bf181c65ffe9/AndroidManifest.xml:20:5-44
MERGED from [com.google.android.gms:play-services-measurement-sdk-api:16.5.0] /Users/technoarray/.gradle/caches/transforms-2/files-2.1/f0f93d64fa6e27222cc8bf181c65ffe9/AndroidManifest.xml:20:5-44
MERGED from [com.google.android.gms:play-services-measurement-base:16.5.0] /Users/technoarray/.gradle/caches/transforms-2/files-2.1/fb07b62dc999833d13484c6b9a175fd2/AndroidManifest.xml:5:5-44
MERGED from [com.google.android.gms:play-services-measurement-base:16.5.0] /Users/technoarray/.gradle/caches/transforms-2/files-2.1/fb07b62dc999833d13484c6b9a175fd2/AndroidManifest.xml:5:5-44
MERGED from [com.google.android.gms:play-services-ads-identifier:16.0.0] /Users/technoarray/.gradle/caches/transforms-2/files-2.1/96c6403c9a1fa11fd35b4c97db086c6c/AndroidManifest.xml:20:5-44
MERGED from [com.google.android.gms:play-services-ads-identifier:16.0.0] /Users/technoarray/.gradle/caches/transforms-2/files-2.1/96c6403c9a1fa11fd35b4c97db086c6c/AndroidManifest.xml:20:5-44
MERGED from [com.google.android.gms:play-services-basement:17.0.0] /Users/technoarray/.gradle/caches/transforms-2/files-2.1/36ed4465b6c90911a489c2ccf3e961b4/AndroidManifest.xml:20:5-44
MERGED from [com.google.android.gms:play-services-basement:17.0.0] /Users/technoarray/.gradle/caches/transforms-2/files-2.1/36ed4465b6c90911a489c2ccf3e961b4/AndroidManifest.xml:20:5-44
MERGED from [androidx.fragment:fragment:1.0.0] /Users/technoarray/.gradle/caches/transforms-2/files-2.1/c11b50dc282409014fa9ad0a9ff63a94/AndroidManifest.xml:20:5-44
MERGED from [androidx.fragment:fragment:1.0.0] /Users/technoarray/.gradle/caches/transforms-2/files-2.1/c11b50dc282409014fa9ad0a9ff63a94/AndroidManifest.xml:20:5-44
MERGED from [androidx.vectordrawable:vectordrawable-animated:1.0.0] /Users/technoarray/.gradle/caches/transforms-2/files-2.1/4cc3961a5ff19e3cd6b7d5559a26a7bb/AndroidManifest.xml:20:5-44
MERGED from [androidx.vectordrawable:vectordrawable-animated:1.0.0] /Users/technoarray/.gradle/caches/transforms-2/files-2.1/4cc3961a5ff19e3cd6b7d5559a26a7bb/AndroidManifest.xml:20:5-44
MERGED from [androidx.browser:browser:1.0.0] /Users/technoarray/.gradle/caches/transforms-2/files-2.1/364c726cebed81cb21c5a0fc85a3ed55/AndroidManifest.xml:20:5-44
MERGED from [androidx.browser:browser:1.0.0] /Users/technoarray/.gradle/caches/transforms-2/files-2.1/364c726cebed81cb21c5a0fc85a3ed55/AndroidManifest.xml:20:5-44
MERGED from [androidx.legacy:legacy-support-core-ui:1.0.0] /Users/technoarray/.gradle/caches/transforms-2/files-2.1/1f8edd14da1508059fea97b1f73ca5d5/AndroidManifest.xml:20:5-44
MERGED from [androidx.legacy:legacy-support-core-ui:1.0.0] /Users/technoarray/.gradle/caches/transforms-2/files-2.1/1f8edd14da1508059fea97b1f73ca5d5/AndroidManifest.xml:20:5-44
MERGED from [com.facebook.android:facebook-places:5.0.3] /Users/technoarray/.gradle/caches/transforms-2/files-2.1/c88ab467f430c5bf0d5b921ac99f71fa/AndroidManifest.xml:24:5-26:41
MERGED from [com.facebook.android:facebook-places:5.0.3] /Users/technoarray/.gradle/caches/transforms-2/files-2.1/c88ab467f430c5bf0d5b921ac99f71fa/AndroidManifest.xml:24:5-26:41
MERGED from [com.facebook.android:facebook-applinks:5.0.3] /Users/technoarray/.gradle/caches/transforms-2/files-2.1/6208730f2536726b9c38d5d64ec99f02/AndroidManifest.xml:24:5-26:41
MERGED from [com.facebook.android:facebook-applinks:5.0.3] /Users/technoarray/.gradle/caches/transforms-2/files-2.1/6208730f2536726b9c38d5d64ec99f02/AndroidManifest.xml:24:5-26:41
MERGED from [com.facebook.android:facebook-messenger:5.0.3] /Users/technoarray/.gradle/caches/transforms-2/files-2.1/b40f717f885530e526e7ae642c11c4f7/AndroidManifest.xml:24:5-26:41
MERGED from [com.facebook.android:facebook-messenger:5.0.3] /Users/technoarray/.gradle/caches/transforms-2/files-2.1/b40f717f885530e526e7ae642c11c4f7/AndroidManifest.xml:24:5-26:41
MERGED from [com.facebook.android:facebook-core:5.0.3] /Users/technoarray/.gradle/caches/transforms-2/files-2.1/f891ebaa0645e1dfb0de68d17a9ebb5a/AndroidManifest.xml:24:5-26:41
MERGED from [com.facebook.android:facebook-core:5.0.3] /Users/technoarray/.gradle/caches/transforms-2/files-2.1/f891ebaa0645e1dfb0de68d17a9ebb5a/AndroidManifest.xml:24:5-26:41
MERGED from [androidx.legacy:legacy-support-core-utils:1.0.0] /Users/technoarray/.gradle/caches/transforms-2/files-2.1/23244d484643676109d8be8a2cf4e257/AndroidManifest.xml:20:5-44
MERGED from [androidx.legacy:legacy-support-core-utils:1.0.0] /Users/technoarray/.gradle/caches/transforms-2/files-2.1/23244d484643676109d8be8a2cf4e257/AndroidManifest.xml:20:5-44
MERGED from [androidx.vectordrawable:vectordrawable:1.0.1] /Users/technoarray/.gradle/caches/transforms-2/files-2.1/0a3cdca0b39c974f38cf68b9767eb383/AndroidManifest.xml:20:5-44
MERGED from [androidx.vectordrawable:vectordrawable:1.0.1] /Users/technoarray/.gradle/caches/transforms-2/files-2.1/0a3cdca0b39c974f38cf68b9767eb383/AndroidManifest.xml:20:5-44
MERGED from [androidx.media:media:1.0.0] /Users/technoarray/.gradle/caches/transforms-2/files-2.1/bccd592d2aca07d44e166d6f211377bd/AndroidManifest.xml:20:5-44
MERGED from [androidx.media:media:1.0.0] /Users/technoarray/.gradle/caches/transforms-2/files-2.1/bccd592d2aca07d44e166d6f211377bd/AndroidManifest.xml:20:5-44
MERGED from [androidx.loader:loader:1.0.0] /Users/technoarray/.gradle/caches/transforms-2/files-2.1/4de7432c2e34f10730cd3821adaa14e4/AndroidManifest.xml:20:5-44
MERGED from [androidx.loader:loader:1.0.0] /Users/technoarray/.gradle/caches/transforms-2/files-2.1/4de7432c2e34f10730cd3821adaa14e4/AndroidManifest.xml:20:5-44
MERGED from [androidx.viewpager:viewpager:1.0.0] /Users/technoarray/.gradle/caches/transforms-2/files-2.1/1cd189e7f2968107ac8eb80745a903f9/AndroidManifest.xml:20:5-44
MERGED from [androidx.viewpager:viewpager:1.0.0] /Users/technoarray/.gradle/caches/transforms-2/files-2.1/1cd189e7f2968107ac8eb80745a903f9/AndroidManifest.xml:20:5-44
MERGED from [androidx.coordinatorlayout:coordinatorlayout:1.0.0] /Users/technoarray/.gradle/caches/transforms-2/files-2.1/fe46243a1a4c18e058bf6a6e6600ee07/AndroidManifest.xml:20:5-44
MERGED from [androidx.coordinatorlayout:coordinatorlayout:1.0.0] /Users/technoarray/.gradle/caches/transforms-2/files-2.1/fe46243a1a4c18e058bf6a6e6600ee07/AndroidManifest.xml:20:5-44
MERGED from [androidx.drawerlayout:drawerlayout:1.0.0] /Users/technoarray/.gradle/caches/transforms-2/files-2.1/8c6ba5128b1ec7d83bd57534d90bf378/AndroidManifest.xml:20:5-44
MERGED from [androidx.drawerlayout:drawerlayout:1.0.0] /Users/technoarray/.gradle/caches/transforms-2/files-2.1/8c6ba5128b1ec7d83bd57534d90bf378/AndroidManifest.xml:20:5-44
MERGED from [androidx.slidingpanelayout:slidingpanelayout:1.0.0] /Users/technoarray/.gradle/caches/transforms-2/files-2.1/dfe252f9efbd904172770d908a8d7b8a/AndroidManifest.xml:20:5-44
MERGED from [androidx.slidingpanelayout:slidingpanelayout:1.0.0] /Users/technoarray/.gradle/caches/transforms-2/files-2.1/dfe252f9efbd904172770d908a8d7b8a/AndroidManifest.xml:20:5-44
MERGED from [androidx.customview:customview:1.0.0] /Users/technoarray/.gradle/caches/transforms-2/files-2.1/8fe68fd7c9d6545ed292d7e00d32d6fc/AndroidManifest.xml:20:5-44
MERGED from [androidx.customview:customview:1.0.0] /Users/technoarray/.gradle/caches/transforms-2/files-2.1/8fe68fd7c9d6545ed292d7e00d32d6fc/AndroidManifest.xml:20:5-44
MERGED from [androidx.swiperefreshlayout:swiperefreshlayout:1.0.0] /Users/technoarray/.gradle/caches/transforms-2/files-2.1/3c36a6077d0bcc3d6e8dd1d744bb91dd/AndroidManifest.xml:20:5-44
MERGED from [androidx.swiperefreshlayout:swiperefreshlayout:1.0.0] /Users/technoarray/.gradle/caches/transforms-2/files-2.1/3c36a6077d0bcc3d6e8dd1d744bb91dd/AndroidManifest.xml:20:5-44
MERGED from [androidx.asynclayoutinflater:asynclayoutinflater:1.0.0] /Users/technoarray/.gradle/caches/transforms-2/files-2.1/a9603bc96cd145fe9ba4e9bb9f4e4d9f/AndroidManifest.xml:20:5-44
MERGED from [androidx.asynclayoutinflater:asynclayoutinflater:1.0.0] /Users/technoarray/.gradle/caches/transforms-2/files-2.1/a9603bc96cd145fe9ba4e9bb9f4e4d9f/AndroidManifest.xml:20:5-44
MERGED from [androidx.core:core:1.0.1] /Users/technoarray/.gradle/caches/transforms-2/files-2.1/e82bcc38e5da19011d0395add25d9201/AndroidManifest.xml:20:5-44
MERGED from [androidx.core:core:1.0.1] /Users/technoarray/.gradle/caches/transforms-2/files-2.1/e82bcc38e5da19011d0395add25d9201/AndroidManifest.xml:20:5-44
MERGED from [androidx.versionedparcelable:versionedparcelable:1.0.0] /Users/technoarray/.gradle/caches/transforms-2/files-2.1/9c80c57b3f53b9259fe96ef35e8e7084/AndroidManifest.xml:20:5-44
MERGED from [androidx.versionedparcelable:versionedparcelable:1.0.0] /Users/technoarray/.gradle/caches/transforms-2/files-2.1/9c80c57b3f53b9259fe96ef35e8e7084/AndroidManifest.xml:20:5-44
MERGED from [androidx.cursoradapter:cursoradapter:1.0.0] /Users/technoarray/.gradle/caches/transforms-2/files-2.1/44eb953e48f73f3cbb4f9b214cadb7c2/AndroidManifest.xml:20:5-44
MERGED from [androidx.cursoradapter:cursoradapter:1.0.0] /Users/technoarray/.gradle/caches/transforms-2/files-2.1/44eb953e48f73f3cbb4f9b214cadb7c2/AndroidManifest.xml:20:5-44
MERGED from [androidx.lifecycle:lifecycle-runtime:2.0.0] /Users/technoarray/.gradle/caches/transforms-2/files-2.1/74cbd6d8ded829fc216e9f54fd0a55fa/AndroidManifest.xml:20:5-44
MERGED from [androidx.lifecycle:lifecycle-runtime:2.0.0] /Users/technoarray/.gradle/caches/transforms-2/files-2.1/74cbd6d8ded829fc216e9f54fd0a55fa/AndroidManifest.xml:20:5-44
MERGED from [androidx.documentfile:documentfile:1.0.0] /Users/technoarray/.gradle/caches/transforms-2/files-2.1/ce30a40b39da94d4a5cdf74a15ab344a/AndroidManifest.xml:20:5-44
MERGED from [androidx.documentfile:documentfile:1.0.0] /Users/technoarray/.gradle/caches/transforms-2/files-2.1/ce30a40b39da94d4a5cdf74a15ab344a/AndroidManifest.xml:20:5-44
MERGED from [androidx.localbroadcastmanager:localbroadcastmanager:1.0.0] /Users/technoarray/.gradle/caches/transforms-2/files-2.1/a83a41727b27a9958a9b81953b14d396/AndroidManifest.xml:20:5-44
MERGED from [androidx.localbroadcastmanager:localbroadcastmanager:1.0.0] /Users/technoarray/.gradle/caches/transforms-2/files-2.1/a83a41727b27a9958a9b81953b14d396/AndroidManifest.xml:20:5-44
MERGED from [androidx.print:print:1.0.0] /Users/technoarray/.gradle/caches/transforms-2/files-2.1/db126179063516b6201b1e5a211731f4/AndroidManifest.xml:20:5-44
MERGED from [androidx.print:print:1.0.0] /Users/technoarray/.gradle/caches/transforms-2/files-2.1/db126179063516b6201b1e5a211731f4/AndroidManifest.xml:20:5-44
MERGED from [androidx.lifecycle:lifecycle-viewmodel:2.0.0] /Users/technoarray/.gradle/caches/transforms-2/files-2.1/6635ec7b3a9c090ec954e9fe246bc9aa/AndroidManifest.xml:20:5-44
MERGED from [androidx.lifecycle:lifecycle-viewmodel:2.0.0] /Users/technoarray/.gradle/caches/transforms-2/files-2.1/6635ec7b3a9c090ec954e9fe246bc9aa/AndroidManifest.xml:20:5-44
MERGED from [androidx.interpolator:interpolator:1.0.0] /Users/technoarray/.gradle/caches/transforms-2/files-2.1/02ac51474fb985aa919897f0507eb80d/AndroidManifest.xml:20:5-44
MERGED from [androidx.interpolator:interpolator:1.0.0] /Users/technoarray/.gradle/caches/transforms-2/files-2.1/02ac51474fb985aa919897f0507eb80d/AndroidManifest.xml:20:5-44
MERGED from [androidx.lifecycle:lifecycle-livedata:2.0.0] /Users/technoarray/.gradle/caches/transforms-2/files-2.1/1fd7c6ff49b60c4adaf7509ac4e283cf/AndroidManifest.xml:20:5-44
MERGED from [androidx.lifecycle:lifecycle-livedata:2.0.0] /Users/technoarray/.gradle/caches/transforms-2/files-2.1/1fd7c6ff49b60c4adaf7509ac4e283cf/AndroidManifest.xml:20:5-44
MERGED from [androidx.lifecycle:lifecycle-livedata-core:2.0.0] /Users/technoarray/.gradle/caches/transforms-2/files-2.1/e72aa465e3317d06a31102fe4fda521e/AndroidManifest.xml:20:5-44
MERGED from [androidx.lifecycle:lifecycle-livedata-core:2.0.0] /Users/technoarray/.gradle/caches/transforms-2/files-2.1/e72aa465e3317d06a31102fe4fda521e/AndroidManifest.xml:20:5-44
MERGED from [androidx.arch.core:core-runtime:2.0.0] /Users/technoarray/.gradle/caches/transforms-2/files-2.1/ff06da4af9aa58b9d34f87589329ef59/AndroidManifest.xml:20:5-44
MERGED from [androidx.arch.core:core-runtime:2.0.0] /Users/technoarray/.gradle/caches/transforms-2/files-2.1/ff06da4af9aa58b9d34f87589329ef59/AndroidManifest.xml:20:5-44
MERGED from [androidx.cardview:cardview:1.0.0] /Users/technoarray/.gradle/caches/transforms-2/files-2.1/625abcd181aed8587e627e3495d5b235/AndroidManifest.xml:20:5-44
MERGED from [androidx.cardview:cardview:1.0.0] /Users/technoarray/.gradle/caches/transforms-2/files-2.1/625abcd181aed8587e627e3495d5b235/AndroidManifest.xml:20:5-44
MERGED from [cn.aigestudio.wheelpicker:WheelPicker:1.0.3] /Users/technoarray/.gradle/caches/transforms-2/files-2.1/f76693957409d0990225359b5bb218b9/AndroidManifest.xml:8:5-10:41
MERGED from [cn.aigestudio.wheelpicker:WheelPicker:1.0.3] /Users/technoarray/.gradle/caches/transforms-2/files-2.1/f76693957409d0990225359b5bb218b9/AndroidManifest.xml:8:5-10:41
MERGED from [com.facebook.fresco:fresco:1.10.0] /Users/technoarray/.gradle/caches/transforms-2/files-2.1/c90fc93b5a7ec4cd8feaada5409d6ac3/AndroidManifest.xml:5:5-7:41
MERGED from [com.facebook.fresco:fresco:1.10.0] /Users/technoarray/.gradle/caches/transforms-2/files-2.1/c90fc93b5a7ec4cd8feaada5409d6ac3/AndroidManifest.xml:5:5-7:41
MERGED from [com.facebook.fresco:imagepipeline-okhttp3:1.10.0] /Users/technoarray/.gradle/caches/transforms-2/files-2.1/4323a0f9bfb7ae72517487fa17901746/AndroidManifest.xml:5:5-7:41
MERGED from [com.facebook.fresco:imagepipeline-okhttp3:1.10.0] /Users/technoarray/.gradle/caches/transforms-2/files-2.1/4323a0f9bfb7ae72517487fa17901746/AndroidManifest.xml:5:5-7:41
MERGED from [com.facebook.fresco:drawee:1.10.0] /Users/technoarray/.gradle/caches/transforms-2/files-2.1/9eae257993c7157047971e25877fba49/AndroidManifest.xml:5:5-7:41
MERGED from [com.facebook.fresco:drawee:1.10.0] /Users/technoarray/.gradle/caches/transforms-2/files-2.1/9eae257993c7157047971e25877fba49/AndroidManifest.xml:5:5-7:41
MERGED from [com.facebook.fresco:imagepipeline:1.10.0] /Users/technoarray/.gradle/caches/transforms-2/files-2.1/f36dc0df564ce3623f4fd10664d86ceb/AndroidManifest.xml:5:5-7:41
MERGED from [com.facebook.fresco:imagepipeline:1.10.0] /Users/technoarray/.gradle/caches/transforms-2/files-2.1/f36dc0df564ce3623f4fd10664d86ceb/AndroidManifest.xml:5:5-7:41
MERGED from [com.facebook.fresco:imagepipeline-base:1.10.0] /Users/technoarray/.gradle/caches/transforms-2/files-2.1/305d61cfff3166b30f3b367c23e65a15/AndroidManifest.xml:5:5-7:41
MERGED from [com.facebook.fresco:imagepipeline-base:1.10.0] /Users/technoarray/.gradle/caches/transforms-2/files-2.1/305d61cfff3166b30f3b367c23e65a15/AndroidManifest.xml:5:5-7:41
MERGED from [com.facebook.soloader:soloader:0.6.0] /Users/technoarray/.gradle/caches/transforms-2/files-2.1/0edceff309ae16bc70283b2b6e09f14d/AndroidManifest.xml:7:5-9:41
MERGED from [com.facebook.soloader:soloader:0.6.0] /Users/technoarray/.gradle/caches/transforms-2/files-2.1/0edceff309ae16bc70283b2b6e09f14d/AndroidManifest.xml:7:5-9:41
MERGED from [com.facebook.fresco:fbcore:1.10.0] /Users/technoarray/.gradle/caches/transforms-2/files-2.1/ddf71122e35b364ee561c38569c0410a/AndroidManifest.xml:5:5-7:41
MERGED from [com.facebook.fresco:fbcore:1.10.0] /Users/technoarray/.gradle/caches/transforms-2/files-2.1/ddf71122e35b364ee561c38569c0410a/AndroidManifest.xml:5:5-7:41
INJECTED from /Users/technoarray/Downloads/reactnative/dev_projects/Backup Zip/ethera_new/android/app/src/main/AndroidManifest.xml
INJECTED from /Users/technoarray/Downloads/reactnative/dev_projects/Backup Zip/ethera_new/android/app/src/main/AndroidManifest.xml
	android:targetSdkVersion
		INJECTED from /Users/technoarray/Downloads/reactnative/dev_projects/Backup Zip/ethera_new/android/app/src/main/AndroidManifest.xml
		ADDED from /Users/technoarray/Downloads/reactnative/dev_projects/Backup Zip/ethera_new/android/app/src/main/AndroidManifest.xml
		INJECTED from /Users/technoarray/Downloads/reactnative/dev_projects/Backup Zip/ethera_new/android/app/src/main/AndroidManifest.xml
	android:minSdkVersion
		INJECTED from /Users/technoarray/Downloads/reactnative/dev_projects/Backup Zip/ethera_new/android/app/src/main/AndroidManifest.xml
		ADDED from /Users/technoarray/Downloads/reactnative/dev_projects/Backup Zip/ethera_new/android/app/src/main/AndroidManifest.xml
		INJECTED from /Users/technoarray/Downloads/reactnative/dev_projects/Backup Zip/ethera_new/android/app/src/main/AndroidManifest.xml
uses-permission#android.permission.WAKE_LOCK
ADDED from [:react-native-firebase] /Users/technoarray/Downloads/reactnative/dev_projects/Backup Zip/ethera_new/node_modules/react-native-firebase/android/build/intermediates/library_manifest/release/AndroidManifest.xml:12:5-68
MERGED from [com.google.android.gms:play-services-measurement-api:16.5.0] /Users/technoarray/.gradle/caches/transforms-2/files-2.1/8c8082a299d3a265bc3be37072b2c92e/AndroidManifest.xml:24:5-68
MERGED from [com.google.android.gms:play-services-measurement-api:16.5.0] /Users/technoarray/.gradle/caches/transforms-2/files-2.1/8c8082a299d3a265bc3be37072b2c92e/AndroidManifest.xml:24:5-68
MERGED from [com.google.firebase:firebase-iid:18.0.0] /Users/technoarray/.gradle/caches/transforms-2/files-2.1/a289c5d6a7a81a5e7e1295fa12184933/AndroidManifest.xml:24:5-68
MERGED from [com.google.firebase:firebase-iid:18.0.0] /Users/technoarray/.gradle/caches/transforms-2/files-2.1/a289c5d6a7a81a5e7e1295fa12184933/AndroidManifest.xml:24:5-68
MERGED from [com.google.android.gms:play-services-measurement:16.5.0] /Users/technoarray/.gradle/caches/transforms-2/files-2.1/c56b7515e00c8206976b8c979c0dc8bc/AndroidManifest.xml:25:5-68
MERGED from [com.google.android.gms:play-services-measurement:16.5.0] /Users/technoarray/.gradle/caches/transforms-2/files-2.1/c56b7515e00c8206976b8c979c0dc8bc/AndroidManifest.xml:25:5-68
MERGED from [com.google.android.gms:play-services-measurement-impl:16.5.0] /Users/technoarray/.gradle/caches/transforms-2/files-2.1/dde9233023bfd4a900e6ef666e546608/AndroidManifest.xml:25:5-68
MERGED from [com.google.android.gms:play-services-measurement-impl:16.5.0] /Users/technoarray/.gradle/caches/transforms-2/files-2.1/dde9233023bfd4a900e6ef666e546608/AndroidManifest.xml:25:5-68
MERGED from [com.google.android.gms:play-services-measurement-sdk-api:16.5.0] /Users/technoarray/.gradle/caches/transforms-2/files-2.1/f0f93d64fa6e27222cc8bf181c65ffe9/AndroidManifest.xml:25:5-68
MERGED from [com.google.android.gms:play-services-measurement-sdk-api:16.5.0] /Users/technoarray/.gradle/caches/transforms-2/files-2.1/f0f93d64fa6e27222cc8bf181c65ffe9/AndroidManifest.xml:25:5-68
	android:name
		ADDED from [:react-native-firebase] /Users/technoarray/Downloads/reactnative/dev_projects/Backup Zip/ethera_new/node_modules/react-native-firebase/android/build/intermediates/library_manifest/release/AndroidManifest.xml:12:22-65
uses-permission#android.permission.ACCESS_NETWORK_STATE
ADDED from [:react-native-firebase] /Users/technoarray/Downloads/reactnative/dev_projects/Backup Zip/ethera_new/node_modules/react-native-firebase/android/build/intermediates/library_manifest/release/AndroidManifest.xml:13:5-79
MERGED from [com.google.android.gms:play-services-measurement-api:16.5.0] /Users/technoarray/.gradle/caches/transforms-2/files-2.1/8c8082a299d3a265bc3be37072b2c92e/AndroidManifest.xml:23:5-79
MERGED from [com.google.android.gms:play-services-measurement-api:16.5.0] /Users/technoarray/.gradle/caches/transforms-2/files-2.1/8c8082a299d3a265bc3be37072b2c92e/AndroidManifest.xml:23:5-79
MERGED from [com.google.firebase:firebase-iid:18.0.0] /Users/technoarray/.gradle/caches/transforms-2/files-2.1/a289c5d6a7a81a5e7e1295fa12184933/AndroidManifest.xml:22:5-79
MERGED from [com.google.firebase:firebase-iid:18.0.0] /Users/technoarray/.gradle/caches/transforms-2/files-2.1/a289c5d6a7a81a5e7e1295fa12184933/AndroidManifest.xml:22:5-79
MERGED from [com.google.android.gms:play-services-measurement:16.5.0] /Users/technoarray/.gradle/caches/transforms-2/files-2.1/c56b7515e00c8206976b8c979c0dc8bc/AndroidManifest.xml:24:5-79
MERGED from [com.google.android.gms:play-services-measurement:16.5.0] /Users/technoarray/.gradle/caches/transforms-2/files-2.1/c56b7515e00c8206976b8c979c0dc8bc/AndroidManifest.xml:24:5-79
MERGED from [com.google.android.gms:play-services-measurement-impl:16.5.0] /Users/technoarray/.gradle/caches/transforms-2/files-2.1/dde9233023bfd4a900e6ef666e546608/AndroidManifest.xml:24:5-79
MERGED from [com.google.android.gms:play-services-measurement-impl:16.5.0] /Users/technoarray/.gradle/caches/transforms-2/files-2.1/dde9233023bfd4a900e6ef666e546608/AndroidManifest.xml:24:5-79
MERGED from [com.google.android.gms:play-services-measurement-sdk-api:16.5.0] /Users/technoarray/.gradle/caches/transforms-2/files-2.1/f0f93d64fa6e27222cc8bf181c65ffe9/AndroidManifest.xml:24:5-79
MERGED from [com.google.android.gms:play-services-measurement-sdk-api:16.5.0] /Users/technoarray/.gradle/caches/transforms-2/files-2.1/f0f93d64fa6e27222cc8bf181c65ffe9/AndroidManifest.xml:24:5-79
	android:name
		ADDED from [:react-native-firebase] /Users/technoarray/Downloads/reactnative/dev_projects/Backup Zip/ethera_new/node_modules/react-native-firebase/android/build/intermediates/library_manifest/release/AndroidManifest.xml:13:22-76
activity#com.facebook.CustomTabMainActivity
ADDED from [com.facebook.android:facebook-common:5.0.3] /Users/technoarray/.gradle/caches/transforms-2/files-2.1/79a095e037ea733add2055816fbe736d/AndroidManifest.xml:33:9-71
	android:name
		ADDED from [com.facebook.android:facebook-common:5.0.3] /Users/technoarray/.gradle/caches/transforms-2/files-2.1/79a095e037ea733add2055816fbe736d/AndroidManifest.xml:33:19-68
activity#com.facebook.CustomTabActivity
ADDED from [com.facebook.android:facebook-common:5.0.3] /Users/technoarray/.gradle/caches/transforms-2/files-2.1/79a095e037ea733add2055816fbe736d/AndroidManifest.xml:34:9-67
	android:name
		ADDED from [com.facebook.android:facebook-common:5.0.3] /Users/technoarray/.gradle/caches/transforms-2/files-2.1/79a095e037ea733add2055816fbe736d/AndroidManifest.xml:34:19-64
activity#com.google.android.gms.auth.api.signin.internal.SignInHubActivity
ADDED from [com.google.android.gms:play-services-auth:15.0.1] /Users/technoarray/.gradle/caches/transforms-2/files-2.1/f9f3cf3b660c4b383f70107680d1b0c0/AndroidManifest.xml:23:9-27:75
	android:excludeFromRecents
		ADDED from [com.google.android.gms:play-services-auth:15.0.1] /Users/technoarray/.gradle/caches/transforms-2/files-2.1/f9f3cf3b660c4b383f70107680d1b0c0/AndroidManifest.xml:25:13-46
	android:exported
		ADDED from [com.google.android.gms:play-services-auth:15.0.1] /Users/technoarray/.gradle/caches/transforms-2/files-2.1/f9f3cf3b660c4b383f70107680d1b0c0/AndroidManifest.xml:26:13-37
	android:theme
		ADDED from [com.google.android.gms:play-services-auth:15.0.1] /Users/technoarray/.gradle/caches/transforms-2/files-2.1/f9f3cf3b660c4b383f70107680d1b0c0/AndroidManifest.xml:27:13-72
	android:name
		ADDED from [com.google.android.gms:play-services-auth:15.0.1] /Users/technoarray/.gradle/caches/transforms-2/files-2.1/f9f3cf3b660c4b383f70107680d1b0c0/AndroidManifest.xml:24:13-93
service#com.google.android.gms.auth.api.signin.RevocationBoundService
ADDED from [com.google.android.gms:play-services-auth:15.0.1] /Users/technoarray/.gradle/caches/transforms-2/files-2.1/f9f3cf3b660c4b383f70107680d1b0c0/AndroidManifest.xml:33:9-36:110
	android:exported
		ADDED from [com.google.android.gms:play-services-auth:15.0.1] /Users/technoarray/.gradle/caches/transforms-2/files-2.1/f9f3cf3b660c4b383f70107680d1b0c0/AndroidManifest.xml:35:13-36
	android:permission
		ADDED from [com.google.android.gms:play-services-auth:15.0.1] /Users/technoarray/.gradle/caches/transforms-2/files-2.1/f9f3cf3b660c4b383f70107680d1b0c0/AndroidManifest.xml:36:13-107
	android:name
		ADDED from [com.google.android.gms:play-services-auth:15.0.1] /Users/technoarray/.gradle/caches/transforms-2/files-2.1/f9f3cf3b660c4b383f70107680d1b0c0/AndroidManifest.xml:34:13-89
service#com.google.firebase.messaging.FirebaseMessagingService
ADDED from [com.google.firebase:firebase-messaging:18.0.0] /Users/technoarray/.gradle/caches/transforms-2/files-2.1/06ec37d15c4b2590afc72d47c9a7a199/AndroidManifest.xml:28:9-34:19
	android:exported
		ADDED from [com.google.firebase:firebase-messaging:18.0.0] /Users/technoarray/.gradle/caches/transforms-2/files-2.1/06ec37d15c4b2590afc72d47c9a7a199/AndroidManifest.xml:30:13-37
	android:name
		ADDED from [com.google.firebase:firebase-messaging:18.0.0] /Users/technoarray/.gradle/caches/transforms-2/files-2.1/06ec37d15c4b2590afc72d47c9a7a199/AndroidManifest.xml:29:13-82
service#com.google.firebase.components.ComponentDiscoveryService
ADDED from [com.google.android.gms:play-services-measurement-api:16.5.0] /Users/technoarray/.gradle/caches/transforms-2/files-2.1/8c8082a299d3a265bc3be37072b2c92e/AndroidManifest.xml:27:9-33:19
MERGED from [com.google.firebase:firebase-iid:18.0.0] /Users/technoarray/.gradle/caches/transforms-2/files-2.1/a289c5d6a7a81a5e7e1295fa12184933/AndroidManifest.xml:29:9-35:19
MERGED from [com.google.firebase:firebase-iid:18.0.0] /Users/technoarray/.gradle/caches/transforms-2/files-2.1/a289c5d6a7a81a5e7e1295fa12184933/AndroidManifest.xml:29:9-35:19
	android:exported
		ADDED from [com.google.android.gms:play-services-measurement-api:16.5.0] /Users/technoarray/.gradle/caches/transforms-2/files-2.1/8c8082a299d3a265bc3be37072b2c92e/AndroidManifest.xml:29:13-37
	android:name
		ADDED from [com.google.android.gms:play-services-measurement-api:16.5.0] /Users/technoarray/.gradle/caches/transforms-2/files-2.1/8c8082a299d3a265bc3be37072b2c92e/AndroidManifest.xml:28:13-84
meta-data#com.google.firebase.components:com.google.firebase.analytics.connector.internal.AnalyticsConnectorRegistrar
ADDED from [com.google.android.gms:play-services-measurement-api:16.5.0] /Users/technoarray/.gradle/caches/transforms-2/files-2.1/8c8082a299d3a265bc3be37072b2c92e/AndroidManifest.xml:30:13-32:85
	android:value
		ADDED from [com.google.android.gms:play-services-measurement-api:16.5.0] /Users/technoarray/.gradle/caches/transforms-2/files-2.1/8c8082a299d3a265bc3be37072b2c92e/AndroidManifest.xml:32:17-82
	android:name
		ADDED from [com.google.android.gms:play-services-measurement-api:16.5.0] /Users/technoarray/.gradle/caches/transforms-2/files-2.1/8c8082a299d3a265bc3be37072b2c92e/AndroidManifest.xml:31:17-139
uses-permission#com.google.android.c2dm.permission.RECEIVE
ADDED from [com.google.firebase:firebase-iid:18.0.0] /Users/technoarray/.gradle/caches/transforms-2/files-2.1/a289c5d6a7a81a5e7e1295fa12184933/AndroidManifest.xml:26:5-82
	android:name
		ADDED from [com.google.firebase:firebase-iid:18.0.0] /Users/technoarray/.gradle/caches/transforms-2/files-2.1/a289c5d6a7a81a5e7e1295fa12184933/AndroidManifest.xml:26:22-79
meta-data#com.google.firebase.components:com.google.firebase.iid.Registrar
ADDED from [com.google.firebase:firebase-iid:18.0.0] /Users/technoarray/.gradle/caches/transforms-2/files-2.1/a289c5d6a7a81a5e7e1295fa12184933/AndroidManifest.xml:32:13-34:85
	android:value
		ADDED from [com.google.firebase:firebase-iid:18.0.0] /Users/technoarray/.gradle/caches/transforms-2/files-2.1/a289c5d6a7a81a5e7e1295fa12184933/AndroidManifest.xml:34:17-82
	android:name
		ADDED from [com.google.firebase:firebase-iid:18.0.0] /Users/technoarray/.gradle/caches/transforms-2/files-2.1/a289c5d6a7a81a5e7e1295fa12184933/AndroidManifest.xml:33:17-96
receiver#com.google.firebase.iid.FirebaseInstanceIdReceiver
ADDED from [com.google.firebase:firebase-iid:18.0.0] /Users/technoarray/.gradle/caches/transforms-2/files-2.1/a289c5d6a7a81a5e7e1295fa12184933/AndroidManifest.xml:37:9-44:20
	android:exported
		ADDED from [com.google.firebase:firebase-iid:18.0.0] /Users/technoarray/.gradle/caches/transforms-2/files-2.1/a289c5d6a7a81a5e7e1295fa12184933/AndroidManifest.xml:39:13-36
	android:permission
		ADDED from [com.google.firebase:firebase-iid:18.0.0] /Users/technoarray/.gradle/caches/transforms-2/files-2.1/a289c5d6a7a81a5e7e1295fa12184933/AndroidManifest.xml:40:13-73
	android:name
		ADDED from [com.google.firebase:firebase-iid:18.0.0] /Users/technoarray/.gradle/caches/transforms-2/files-2.1/a289c5d6a7a81a5e7e1295fa12184933/AndroidManifest.xml:38:13-78
intent-filter#action:name:com.google.android.c2dm.intent.RECEIVE
ADDED from [com.google.firebase:firebase-iid:18.0.0] /Users/technoarray/.gradle/caches/transforms-2/files-2.1/a289c5d6a7a81a5e7e1295fa12184933/AndroidManifest.xml:41:13-43:29
action#com.google.android.c2dm.intent.RECEIVE
ADDED from [com.google.firebase:firebase-iid:18.0.0] /Users/technoarray/.gradle/caches/transforms-2/files-2.1/a289c5d6a7a81a5e7e1295fa12184933/AndroidManifest.xml:42:17-81
	android:name
		ADDED from [com.google.firebase:firebase-iid:18.0.0] /Users/technoarray/.gradle/caches/transforms-2/files-2.1/a289c5d6a7a81a5e7e1295fa12184933/AndroidManifest.xml:42:25-78
activity#com.google.android.gms.common.api.GoogleApiActivity
ADDED from [com.google.android.gms:play-services-base:17.0.0] /Users/technoarray/.gradle/caches/transforms-2/files-2.1/6baa836efd8ab2d02a51aaa1f4438ae3/AndroidManifest.xml:23:9-26:75
	android:exported
		ADDED from [com.google.android.gms:play-services-base:17.0.0] /Users/technoarray/.gradle/caches/transforms-2/files-2.1/6baa836efd8ab2d02a51aaa1f4438ae3/AndroidManifest.xml:25:13-37
	android:theme
		ADDED from [com.google.android.gms:play-services-base:17.0.0] /Users/technoarray/.gradle/caches/transforms-2/files-2.1/6baa836efd8ab2d02a51aaa1f4438ae3/AndroidManifest.xml:26:13-72
	android:name
		ADDED from [com.google.android.gms:play-services-base:17.0.0] /Users/technoarray/.gradle/caches/transforms-2/files-2.1/6baa836efd8ab2d02a51aaa1f4438ae3/AndroidManifest.xml:24:13-79
provider#com.google.firebase.provider.FirebaseInitProvider
ADDED from [com.google.firebase:firebase-common:17.0.0] /Users/technoarray/.gradle/caches/transforms-2/files-2.1/c8c4ee766e6a60a1d8bf1ae304e5202b/AndroidManifest.xml:12:9-16:39
	android:authorities
		ADDED from [com.google.firebase:firebase-common:17.0.0] /Users/technoarray/.gradle/caches/transforms-2/files-2.1/c8c4ee766e6a60a1d8bf1ae304e5202b/AndroidManifest.xml:14:13-72
	android:exported
		ADDED from [com.google.firebase:firebase-common:17.0.0] /Users/technoarray/.gradle/caches/transforms-2/files-2.1/c8c4ee766e6a60a1d8bf1ae304e5202b/AndroidManifest.xml:15:13-37
	android:initOrder
		ADDED from [com.google.firebase:firebase-common:17.0.0] /Users/technoarray/.gradle/caches/transforms-2/files-2.1/c8c4ee766e6a60a1d8bf1ae304e5202b/AndroidManifest.xml:16:13-36
	android:name
		ADDED from [com.google.firebase:firebase-common:17.0.0] /Users/technoarray/.gradle/caches/transforms-2/files-2.1/c8c4ee766e6a60a1d8bf1ae304e5202b/AndroidManifest.xml:13:13-77
uses-permission#com.google.android.finsky.permission.BIND_GET_INSTALL_REFERRER_SERVICE
ADDED from [com.google.android.gms:play-services-measurement:16.5.0] /Users/technoarray/.gradle/caches/transforms-2/files-2.1/c56b7515e00c8206976b8c979c0dc8bc/AndroidManifest.xml:26:5-110
MERGED from [com.google.android.gms:play-services-measurement-impl:16.5.0] /Users/technoarray/.gradle/caches/transforms-2/files-2.1/dde9233023bfd4a900e6ef666e546608/AndroidManifest.xml:26:5-110
MERGED from [com.google.android.gms:play-services-measurement-impl:16.5.0] /Users/technoarray/.gradle/caches/transforms-2/files-2.1/dde9233023bfd4a900e6ef666e546608/AndroidManifest.xml:26:5-110
MERGED from [com.google.android.gms:play-services-measurement-sdk-api:16.5.0] /Users/technoarray/.gradle/caches/transforms-2/files-2.1/f0f93d64fa6e27222cc8bf181c65ffe9/AndroidManifest.xml:26:5-110
MERGED from [com.google.android.gms:play-services-measurement-sdk-api:16.5.0] /Users/technoarray/.gradle/caches/transforms-2/files-2.1/f0f93d64fa6e27222cc8bf181c65ffe9/AndroidManifest.xml:26:5-110
	android:name
		ADDED from [com.google.android.gms:play-services-measurement:16.5.0] /Users/technoarray/.gradle/caches/transforms-2/files-2.1/c56b7515e00c8206976b8c979c0dc8bc/AndroidManifest.xml:26:22-107
receiver#com.google.android.gms.measurement.AppMeasurementReceiver
ADDED from [com.google.android.gms:play-services-measurement:16.5.0] /Users/technoarray/.gradle/caches/transforms-2/files-2.1/c56b7515e00c8206976b8c979c0dc8bc/AndroidManifest.xml:29:9-33:20
	android:enabled
		ADDED from [com.google.android.gms:play-services-measurement:16.5.0] /Users/technoarray/.gradle/caches/transforms-2/files-2.1/c56b7515e00c8206976b8c979c0dc8bc/AndroidManifest.xml:31:13-35
	android:exported
		ADDED from [com.google.android.gms:play-services-measurement:16.5.0] /Users/technoarray/.gradle/caches/transforms-2/files-2.1/c56b7515e00c8206976b8c979c0dc8bc/AndroidManifest.xml:32:13-37
	android:name
		ADDED from [com.google.android.gms:play-services-measurement:16.5.0] /Users/technoarray/.gradle/caches/transforms-2/files-2.1/c56b7515e00c8206976b8c979c0dc8bc/AndroidManifest.xml:30:13-85
receiver#com.google.android.gms.measurement.AppMeasurementInstallReferrerReceiver
ADDED from [com.google.android.gms:play-services-measurement:16.5.0] /Users/technoarray/.gradle/caches/transforms-2/files-2.1/c56b7515e00c8206976b8c979c0dc8bc/AndroidManifest.xml:34:9-42:20
MERGED from [com.google.android.gms:play-services-measurement-impl:16.5.0] /Users/technoarray/.gradle/caches/transforms-2/files-2.1/dde9233023bfd4a900e6ef666e546608/AndroidManifest.xml:29:9-37:20
MERGED from [com.google.android.gms:play-services-measurement-impl:16.5.0] /Users/technoarray/.gradle/caches/transforms-2/files-2.1/dde9233023bfd4a900e6ef666e546608/AndroidManifest.xml:29:9-37:20
MERGED from [com.google.android.gms:play-services-measurement-sdk-api:16.5.0] /Users/technoarray/.gradle/caches/transforms-2/files-2.1/f0f93d64fa6e27222cc8bf181c65ffe9/AndroidManifest.xml:29:9-37:20
MERGED from [com.google.android.gms:play-services-measurement-sdk-api:16.5.0] /Users/technoarray/.gradle/caches/transforms-2/files-2.1/f0f93d64fa6e27222cc8bf181c65ffe9/AndroidManifest.xml:29:9-37:20
	android:enabled
		ADDED from [com.google.android.gms:play-services-measurement:16.5.0] /Users/technoarray/.gradle/caches/transforms-2/files-2.1/c56b7515e00c8206976b8c979c0dc8bc/AndroidManifest.xml:36:13-35
	android:exported
		ADDED from [com.google.android.gms:play-services-measurement:16.5.0] /Users/technoarray/.gradle/caches/transforms-2/files-2.1/c56b7515e00c8206976b8c979c0dc8bc/AndroidManifest.xml:37:13-36
	android:permission
		ADDED from [com.google.android.gms:play-services-measurement:16.5.0] /Users/technoarray/.gradle/caches/transforms-2/files-2.1/c56b7515e00c8206976b8c979c0dc8bc/AndroidManifest.xml:38:13-69
	android:name
		ADDED from [com.google.android.gms:play-services-measurement:16.5.0] /Users/technoarray/.gradle/caches/transforms-2/files-2.1/c56b7515e00c8206976b8c979c0dc8bc/AndroidManifest.xml:35:13-100
intent-filter#action:name:com.android.vending.INSTALL_REFERRER
ADDED from [com.google.android.gms:play-services-measurement:16.5.0] /Users/technoarray/.gradle/caches/transforms-2/files-2.1/c56b7515e00c8206976b8c979c0dc8bc/AndroidManifest.xml:39:13-41:29
action#com.android.vending.INSTALL_REFERRER
ADDED from [com.google.android.gms:play-services-measurement:16.5.0] /Users/technoarray/.gradle/caches/transforms-2/files-2.1/c56b7515e00c8206976b8c979c0dc8bc/AndroidManifest.xml:40:17-79
	android:name
		ADDED from [com.google.android.gms:play-services-measurement:16.5.0] /Users/technoarray/.gradle/caches/transforms-2/files-2.1/c56b7515e00c8206976b8c979c0dc8bc/AndroidManifest.xml:40:25-76
service#com.google.android.gms.measurement.AppMeasurementService
ADDED from [com.google.android.gms:play-services-measurement:16.5.0] /Users/technoarray/.gradle/caches/transforms-2/files-2.1/c56b7515e00c8206976b8c979c0dc8bc/AndroidManifest.xml:44:9-47:40
	android:enabled
		ADDED from [com.google.android.gms:play-services-measurement:16.5.0] /Users/technoarray/.gradle/caches/transforms-2/files-2.1/c56b7515e00c8206976b8c979c0dc8bc/AndroidManifest.xml:46:13-35
	android:exported
		ADDED from [com.google.android.gms:play-services-measurement:16.5.0] /Users/technoarray/.gradle/caches/transforms-2/files-2.1/c56b7515e00c8206976b8c979c0dc8bc/AndroidManifest.xml:47:13-37
	android:name
		ADDED from [com.google.android.gms:play-services-measurement:16.5.0] /Users/technoarray/.gradle/caches/transforms-2/files-2.1/c56b7515e00c8206976b8c979c0dc8bc/AndroidManifest.xml:45:13-84
service#com.google.android.gms.measurement.AppMeasurementJobService
ADDED from [com.google.android.gms:play-services-measurement:16.5.0] /Users/technoarray/.gradle/caches/transforms-2/files-2.1/c56b7515e00c8206976b8c979c0dc8bc/AndroidManifest.xml:48:9-52:72
	android:enabled
		ADDED from [com.google.android.gms:play-services-measurement:16.5.0] /Users/technoarray/.gradle/caches/transforms-2/files-2.1/c56b7515e00c8206976b8c979c0dc8bc/AndroidManifest.xml:50:13-35
	android:exported
		ADDED from [com.google.android.gms:play-services-measurement:16.5.0] /Users/technoarray/.gradle/caches/transforms-2/files-2.1/c56b7515e00c8206976b8c979c0dc8bc/AndroidManifest.xml:51:13-37
	android:permission
		ADDED from [com.google.android.gms:play-services-measurement:16.5.0] /Users/technoarray/.gradle/caches/transforms-2/files-2.1/c56b7515e00c8206976b8c979c0dc8bc/AndroidManifest.xml:52:13-69
	android:name
		ADDED from [com.google.android.gms:play-services-measurement:16.5.0] /Users/technoarray/.gradle/caches/transforms-2/files-2.1/c56b7515e00c8206976b8c979c0dc8bc/AndroidManifest.xml:49:13-87
meta-data#com.google.android.gms.version
ADDED from [com.google.android.gms:play-services-basement:17.0.0] /Users/technoarray/.gradle/caches/transforms-2/files-2.1/36ed4465b6c90911a489c2ccf3e961b4/AndroidManifest.xml:23:9-25:69
	android:value
		ADDED from [com.google.android.gms:play-services-basement:17.0.0] /Users/technoarray/.gradle/caches/transforms-2/files-2.1/36ed4465b6c90911a489c2ccf3e961b4/AndroidManifest.xml:25:13-66
	android:name
		ADDED from [com.google.android.gms:play-services-basement:17.0.0] /Users/technoarray/.gradle/caches/transforms-2/files-2.1/36ed4465b6c90911a489c2ccf3e961b4/AndroidManifest.xml:24:13-58
provider#com.facebook.internal.FacebookInitProvider
ADDED from [com.facebook.android:facebook-core:5.0.3] /Users/technoarray/.gradle/caches/transforms-2/files-2.1/f891ebaa0645e1dfb0de68d17a9ebb5a/AndroidManifest.xml:39:9-42:40
	android:authorities
		ADDED from [com.facebook.android:facebook-core:5.0.3] /Users/technoarray/.gradle/caches/transforms-2/files-2.1/f891ebaa0645e1dfb0de68d17a9ebb5a/AndroidManifest.xml:41:13-72
	android:exported
		ADDED from [com.facebook.android:facebook-core:5.0.3] /Users/technoarray/.gradle/caches/transforms-2/files-2.1/f891ebaa0645e1dfb0de68d17a9ebb5a/AndroidManifest.xml:42:13-37
	android:name
		ADDED from [com.facebook.android:facebook-core:5.0.3] /Users/technoarray/.gradle/caches/transforms-2/files-2.1/f891ebaa0645e1dfb0de68d17a9ebb5a/AndroidManifest.xml:40:13-70
receiver#com.facebook.CurrentAccessTokenExpirationBroadcastReceiver
ADDED from [com.facebook.android:facebook-core:5.0.3] /Users/technoarray/.gradle/caches/transforms-2/files-2.1/f891ebaa0645e1dfb0de68d17a9ebb5a/AndroidManifest.xml:44:9-50:20
	android:exported
		ADDED from [com.facebook.android:facebook-core:5.0.3] /Users/technoarray/.gradle/caches/transforms-2/files-2.1/f891ebaa0645e1dfb0de68d17a9ebb5a/AndroidManifest.xml:46:13-37
	android:name
		ADDED from [com.facebook.android:facebook-core:5.0.3] /Users/technoarray/.gradle/caches/transforms-2/files-2.1/f891ebaa0645e1dfb0de68d17a9ebb5a/AndroidManifest.xml:45:13-86
intent-filter#action:name:com.facebook.sdk.ACTION_CURRENT_ACCESS_TOKEN_CHANGED
ADDED from [com.facebook.android:facebook-core:5.0.3] /Users/technoarray/.gradle/caches/transforms-2/files-2.1/f891ebaa0645e1dfb0de68d17a9ebb5a/AndroidManifest.xml:47:13-49:29
action#com.facebook.sdk.ACTION_CURRENT_ACCESS_TOKEN_CHANGED
ADDED from [com.facebook.android:facebook-core:5.0.3] /Users/technoarray/.gradle/caches/transforms-2/files-2.1/f891ebaa0645e1dfb0de68d17a9ebb5a/AndroidManifest.xml:48:17-95
	android:name
		ADDED from [com.facebook.android:facebook-core:5.0.3] /Users/technoarray/.gradle/caches/transforms-2/files-2.1/f891ebaa0645e1dfb0de68d17a9ebb5a/AndroidManifest.xml:48:25-92
receiver#com.facebook.CampaignTrackingReceiver
ADDED from [com.facebook.android:facebook-core:5.0.3] /Users/technoarray/.gradle/caches/transforms-2/files-2.1/f891ebaa0645e1dfb0de68d17a9ebb5a/AndroidManifest.xml:51:9-58:20
	android:exported
		ADDED from [com.facebook.android:facebook-core:5.0.3] /Users/technoarray/.gradle/caches/transforms-2/files-2.1/f891ebaa0645e1dfb0de68d17a9ebb5a/AndroidManifest.xml:53:13-36
	android:permission
		ADDED from [com.facebook.android:facebook-core:5.0.3] /Users/technoarray/.gradle/caches/transforms-2/files-2.1/f891ebaa0645e1dfb0de68d17a9ebb5a/AndroidManifest.xml:54:13-69
	android:name
		ADDED from [com.facebook.android:facebook-core:5.0.3] /Users/technoarray/.gradle/caches/transforms-2/files-2.1/f891ebaa0645e1dfb0de68d17a9ebb5a/AndroidManifest.xml:52:13-65
